{
    "name": "相思林徑 Sheung Sze Forest Trail",
    "district": "大帽山",
    "description": "相思林徑位於新界中部，於大帽山山腰的一條山徑，約高600米。由於路徑上種植了不少相思樹，故取名相思林徑，惟官方地圖沒有把此路徑列入為正式山徑。　",
    "view": 3,
    "route": {
        "起點": "川龍",
        "25分鐘": "響石墳場",
        "40分鐘": "相思林徑",
        "75分鐘": "龍門郊遊徑",
        "45分鐘": "城門道(菠蘿壩)"
    },
    "transport": {
        "0": {
            "交通": "80號小巴",
            "路線": "荃灣川龍街 ⇔ 川龍村",
            "上/下車點": "川龍村(總站)",
            "備註": ""
        },
        "1": {
            "交通": "51號巴士",
            "路線": "荃灣西鐵站 ⇔ 元朗(上村)",
            "上/下車點": "川龍村",
            "備註": "巴士班次疏落"
        },
        "2": {
            "交通": "82號小巴",
            "路線": "城門水塘 ⇔ 荃灣(兆和街)",
            "上/下車點": "城門水塘 (總站)",
            "備註": ""
        }
    },
    "time": 185,
    "length": 8,
    "difficulty": 6,
    "dimension": {
        "Total_distance": 7.65,
        "Max_elevation": 645,
        "Min_elevation": 206,
        "Total_climbing": 410,
        "Total_descent": -515
    },
    "others": {
        "周邊景點": "小丑石、相思石林",
        "適合活動": "[遠足]、[觀賞芒草]",
        "補給點": "川龍村士多及茶樓或城門道小巴站旁小食亭 (沒有中途補給)",
        "退出路線": "有多條分支路線接回龍門郊遊徑前往川龍或城門水塘離開，惟分支路線不算清晰。",
        "短評": "過了響石後 ，視野頃刻變得廣闊，大帽山山峰乍現眼前。林徑部分路段略為淺窄，只容許一人走過，必須小心奕奕前行。不時穿梭於溪澗、石河和樹林中，是一條極富原始氣息的山徑。"
    }
}