{
    "name": "香港仔水塘 Aberdeen Reservoirs",
    "district": "香港島",
    "description": "",
    "view": 3,
    "route": {
        "起點": "灣仔峽",
        "30分鐘": "香港仔上水塘",
        "15分鐘": "香港仔海傍道",
        "10分鐘": "香港仔水塘道"
    },
    "transport": {
        "0": {
            "交通": "15號巴士",
            "路線": "中環碼頭 ⇔ 山頂",
            "上/下車點": "灣仔峽公園",
            "備註": ""
        },
        "1": {
            "交通": "42號巴士",
            "路線": "華富(南) ⇔ 北角碼頭",
            "上/下車點": "業漁大廈",
            "備註": ""
        },
        "2": {
            "交通": "77號巴士",
            "路線": "田灣 ⇔ 筲箕灣",
            "上/下車點": "業漁大廈",
            "備註": ""
        },
        "3": {
            "交通": "170號巴士",
            "路線": "華富 ⇔ 沙田東鐵站",
            "上/下車點": "業漁大廈",
            "備註": ""
        },
        "4": {
            "交通": "971號巴士",
            "路線": "石排灣 ⇔ 海麗邨",
            "上/下車點": "香港仔水塘道",
            "備註": ""
        }
    },
    "time": 70,
    "length": 3.5,
    "difficulty": 3,
    "dimension": {
        "Total_distance": 3.96,
        "Max_elevation": 274,
        "Min_elevation": 31,
        "Total_climbing": 85,
        "Total_descent": -313
    },
    "others": {
        "周邊景點": "4項法定古蹟包括香港仔上水塘水壩、橋及水掣房及香港仔下水塘水壩，以及4項已被評級的歷史建築物等等  (詳細資訊可參考水務文物及歷史建築物列表)",
        "適合活動": "[郊遊]、[遠足]、[參觀古蹟]",
        "相關文章": "《【尋古攻略】#03 漫步風水林 尋找香港仔水塘古蹟》 – 發表於2019年1月 [閱讀]",
        "補給點": "香港仔海傍道一帶食肆及便利店 (沒有中途補給)",
        "退出路線": "過了下水塘後，可選擇在香港仔水塘道乘車離開。",
        "短評": "水塘的建築別樹一格，令人眼前一亮，不愧是一條市民晨運或輕鬆郊遊路線的不二之選。"
    }
}