[
    {
        "name": "野豬徑 Boa Vista",
        "page_link": "https://follo3me.com/hk/boa-vista/",
        "gpx_link": "https://qrgo.page.link/TeCY8"
    },
    {
        "name": "玉桂山 (佛爺山) Yuk Kwai Shan",
        "page_link": "https://follo3me.com/hk/yuk-kwai-shan/",
        "gpx_link": "https://goo.gl/KPM1na"
    },
    {
        "name": "鶴咀山 D’ Aguilar Peak",
        "page_link": "https://follo3me.com/hk/hok-tsui-shan/",
        "gpx_link": "https://qrgo.page.link/2i5HW"
    },
    {
        "name": "砵甸乍山 Pottinger Peak",
        "page_link": "https://follo3me.com/hk/pottinger-peak/",
        "gpx_link": "https://qrgo.page.link/L1X5a"
    },
    {
        "name": "柏鰂石澗 (錦鯉坑) Pak Zak Stream",
        "page_link": "https://follo3me.com/hk/pak-zak-stream/",
        "gpx_link": "https://goo.gl/WtygoH"
    },
    {
        "name": "薄扶林水塘 Pok Fu Lam Reservoir",
        "page_link": "https://follo3me.com/hk/pok-fu-lam-reservoir/",
        "gpx_link": "https://goo.gl/pVVeQo"
    },
    {
        "name": "南風道林地｜班納山 Nam Fung Rd. Woodland｜Bennet’s Hill",
        "page_link": "https://follo3me.com/hk/nam-fung-woodland/",
        "gpx_link": "https://goo.gl/1mJpUr"
    },
    {
        "name": "黃泥涌水塘 Wong Nai Chung Reservoir",
        "page_link": "https://follo3me.com/hk/wong-nai-chung-reservoir/",
        "gpx_link": "https://goo.gl/agZWVD"
    },
    {
        "name": "寶雲道健身徑 Bowen Rd. Fitness Trail (姻緣石 Lover’s Rock)",
        "page_link": "https://follo3me.com/hk/bowen-rd/",
        "gpx_link": "https://goo.gl/vzswMX"
    },
    {
        "name": "大潭水務文物徑 Tai Tam Waterworks Heritage Trail",
        "page_link": "https://follo3me.com/hk/taitam-waterworks/",
        "gpx_link": "https://goo.gl/bpscgH"
    },
    {
        "name": "康柏郊遊徑 Hong Pak Country Trail",
        "page_link": "https://follo3me.com/hk/hong-pak-country-trail/",
        "gpx_link": "https://goo.gl/5hThcZ"
    },
    {
        "name": "斜炮頂 (犀牛石) Che Pau Teng",
        "page_link": "https://follo3me.com/hk/che-pau-teng/",
        "gpx_link": "https://goo.gl/PbzsbD"
    },
    {
        "name": "紫羅蘭山 Violet Hill",
        "page_link": "https://follo3me.com/hk/violet-hill/",
        "gpx_link": "https://goo.gl/WZ8fE1"
    },
    {
        "name": "南朗山 Brick Hill",
        "page_link": "https://follo3me.com/hk/brick-hill/",
        "gpx_link": "https://goo.gl/eg4UX8"
    },
    {
        "name": "畢拿山 Mount Butler",
        "page_link": "https://follo3me.com/hk/mount-butler/",
        "gpx_link": "https://goo.gl/trG3Lq"
    },
    {
        "name": "小馬山 Siu Ma Shan",
        "page_link": "https://follo3me.com/hk/siu-ma-shan/",
        "gpx_link": "https://goo.gl/dLUoM9"
    },
    {
        "name": "鴨脷排 Ap Lei Pai",
        "page_link": "https://follo3me.com/hk/ap-lei-pai/",
        "gpx_link": "https://goo.gl/Th4pBM"
    },
    {
        "name": "玉桂山 Mount Johnston",
        "page_link": "https://follo3me.com/hk/mount-johnston/",
        "gpx_link": "https://goo.gl/KPM1na"
    },
    {
        "name": "龍虎山 Lung Fu Shan",
        "page_link": "https://follo3me.com/hk/lung-fu-shan/",
        "gpx_link": "https://goo.gl/JM3AzY"
    },
    {
        "name": "香港仔水塘 Aberdeen Reservoirs",
        "page_link": "https://follo3me.com/hk/aberdeen-reservoirs/",
        "gpx_link": "https://goo.gl/Y11xgu"
    },
    {
        "name": "西高山 High West",
        "page_link": "https://follo3me.com/hk/high-west/",
        "gpx_link": "https://goo.gl/xXacH2"
    },
    {
        "name": "黑角頭 Cape Collinson",
        "page_link": "https://follo3me.com/hk/cape-collinson/",
        "gpx_link": "https://goo.gl/8xdxym"
    },
    {
        "name": "潭崗瀑布 Tai Tam Mound Waterfall",
        "page_link": "https://follo3me.com/hk/tai-tam-mound/",
        "gpx_link": "https://goo.gl/meZ46V"
    },
    {
        "name": "大潭水塘 Tai Tam Reservoirs",
        "page_link": "https://follo3me.com/hk/tai-tam-reservoir/",
        "gpx_link": "https://goo.gl/MKi1hx"
    },
    {
        "name": "鶴咀半島 Cape D’Aguilar Peninsula",
        "page_link": "https://follo3me.com/hk/cape-daguilar-p/",
        "gpx_link": "https://goo.gl/uqQ5Uh"
    },
    {
        "name": "龍脊 Dragon’s Back",
        "page_link": "https://follo3me.com/hk/dragons-back/",
        "gpx_link": "https://goo.gl/d47JhN"
    },
    {
        "name": "瀑布灣 (華富瀑布) Waterfall Bay",
        "page_link": "https://follo3me.com/hk/waterfall-bay/",
        "gpx_link": ""
    },
    {
        "name": "大浪灣 Big Wave Bay",
        "page_link": "https://follo3me.com/hk/big-wave-bay/",
        "gpx_link": "https://goo.gl/uWE6SY"
    },
    {
        "name": "柏架山紅屋 Mount Parker Woodside",
        "page_link": "https://follo3me.com/hk/woodside/",
        "gpx_link": "https://goo.gl/MoNSGV"
    },
    {
        "name": "石澳 Shek O",
        "page_link": "https://follo3me.com/hk/shek-o/",
        "gpx_link": ""
    },
    {
        "name": "五桂山 Black Hill",
        "page_link": "https://follo3me.com/kowloon-tko/black-hill/",
        "gpx_link": "https://qrgo.page.link/YG4rY"
    },
    {
        "name": "十二笏 Shap Yi Wat",
        "page_link": "https://follo3me.com/kowloon-tko/shap-yi-wat/",
        "gpx_link": "https://qrgo.page.link/dajzJ"
    },
    {
        "name": "照鏡環山 Chiu Keng Wan Shan",
        "page_link": "https://follo3me.com/kowloon-tko/chiu-keng-wan-shan/",
        "gpx_link": "https://qrgo.page.link/ULvCL"
    },
    {
        "name": "大老山 Tate’s Cairn",
        "page_link": "https://follo3me.com/kowloon-tko/tates-cairn/",
        "gpx_link": "https://qrgo.page.link/PcbiA"
    },
    {
        "name": "獅子山 (石馬脊) Lion Rock (Rock Horse Ridge)",
        "page_link": "https://follo3me.com/kowloon-tko/lion-rock-horse/",
        "gpx_link": "https://qrgo.page.link/d16Hc"
    },
    {
        "name": "筆架沖溝 Beacon Hill Gully",
        "page_link": "https://follo3me.com/kowloon-tko/beacon-hill-gully/",
        "gpx_link": "https://goo.gl/yz6s8U"
    },
    {
        "name": "飛鵝山 Kowloon Peak",
        "page_link": "https://follo3me.com/kowloon-tko/kowloon-peak-2/",
        "gpx_link": "https://goo.gl/bVbt4u"
    },
    {
        "name": "筆架山 Beacon Hill",
        "page_link": "https://follo3me.com/kowloon-tko/beacon-hill/",
        "gpx_link": "https://goo.gl/gvzrj3"
    },
    {
        "name": "雞胸山 Unicorn Ridge",
        "page_link": "https://follo3me.com/kowloon-tko/unicorn-ridge/",
        "gpx_link": "https://goo.gl/Q6eud7"
    },
    {
        "name": "鴨仔山 Duckling Hill",
        "page_link": "https://follo3me.com/kowloon-tko/duckling-hill/",
        "gpx_link": "https://goo.gl/9pYaN9"
    },
    {
        "name": "飛鵝山 (芒草) Kowloon Peak",
        "page_link": "https://follo3me.com/kowloon-tko/kowloon-peak/",
        "gpx_link": "https://goo.gl/13HW3z"
    },
    {
        "name": "獅子山 Lion Rock",
        "page_link": "https://follo3me.com/kowloon-tko/lion-rock/",
        "gpx_link": "https://goo.gl/kMTPzf"
    },
    {
        "name": "嘉頓山 Garden Hill",
        "page_link": "https://follo3me.com/kowloon-tko/garden-hill/",
        "gpx_link": "https://goo.gl/HdxsEs"
    },
    {
        "name": "茅湖山廢堡 Mau Wu Lookout",
        "page_link": "https://follo3me.com/kowloon-tko/mau-wu-lookout/",
        "gpx_link": "https://goo.gl/62Xti7"
    },
    {
        "name": "短咀 Tuen Tsui",
        "page_link": "https://follo3me.com/sai-kung/tuen-tsui/",
        "gpx_link": "https://qrgo.page.link/8nUs2"
    },
    {
        "name": "太墩｜雷打石 Tai Tun｜Lui Ta Shek",
        "page_link": "https://follo3me.com/sai-kung/tai-lui/",
        "gpx_link": "https://qrgo.page.link/1h99F"
    },
    {
        "name": "茅坪古道 Mau Ping Ancient Trail",
        "page_link": "https://follo3me.com/sai-kung/mau-ping/",
        "gpx_link": "https://qrgo.page.link/qfwM8"
    },
    {
        "name": "東龍二輋 Tung Lung Yi Che",
        "page_link": "https://follo3me.com/sai-kung/tung-lung-yi-che/",
        "gpx_link": "https://qrgo.page.link/TKjqh"
    },
    {
        "name": "大蛇灣 Tai She Wan",
        "page_link": "https://follo3me.com/sai-kung/tai-she-wan/",
        "gpx_link": "https://qrgo.page.link/HTujo"
    },
    {
        "name": "長咀 Cheung Tsui",
        "page_link": "https://follo3me.com/sai-kung/cheung-tsui/",
        "gpx_link": "https://qrgo.page.link/8nUs2"
    },
    {
        "name": "芙蓉別 Fu Yung Pit",
        "page_link": "https://follo3me.com/sai-kung/fu-yung-pit/",
        "gpx_link": "https://qrgo.page.link/MJ9Wj"
    },
    {
        "name": "標尖角 Biu Tsim Kok",
        "page_link": "https://follo3me.com/sai-kung/biu-tsim-kok/",
        "gpx_link": "https://qrgo.page.link/ARnGM"
    },
    {
        "name": "沙橋頭｜馬頭環 Sha Kiu Tau｜Ma Tau Wan",
        "page_link": "https://follo3me.com/sai-kung/sha-kiu-tau/",
        "gpx_link": "https://qrgo.page.link/EEqtT"
    },
    {
        "name": "涌沙頂 Chung Sha Teng",
        "page_link": "https://follo3me.com/sai-kung/chung-sha-teng/",
        "gpx_link": "https://qrgo.page.link/Bx3Do"
    },
    {
        "name": "蠄蟝石頂 Kam Kui Shek Teng",
        "page_link": "https://follo3me.com/sai-kung/kksteng/",
        "gpx_link": "https://qrgo.page.link/Qp9W5"
    },
    {
        "name": "石芽山 (北脊) Shek Nga Shan (North Ridge)",
        "page_link": "https://follo3me.com/sai-kung/shek-nga-shan-north-ridge/",
        "gpx_link": "https://goo.gl/t2cDJs"
    },
    {
        "name": "浪茄灣｜罾棚角咀 Long Ke Wan｜Tsang Pang Kok Tsui",
        "page_link": "https://follo3me.com/sai-kung/long-tsang/",
        "gpx_link": "https://goo.gl/72zZc4"
    },
    {
        "name": "撿豬灣｜破邊洲 Kim Chu Wan｜Po Pin Chau",
        "page_link": "https://follo3me.com/sai-kung/kim-chu-wan/",
        "gpx_link": "https://qrgo.page.link/3anK5"
    },
    {
        "name": "罾棚角咀 Tsang Pang Kok Tsui",
        "page_link": "https://follo3me.com/sai-kung/tsang-pang-kok-tsui/",
        "gpx_link": "https://goo.gl/CwTwD8"
    },
    {
        "name": "綠蛋島 (爛排) Green Egg Island",
        "page_link": "https://follo3me.com/sai-kung/green-egg-island/",
        "gpx_link": ""
    },
    {
        "name": "花山｜萬柱海岸 Fa Shan",
        "page_link": "https://follo3me.com/sai-kung/fa-shan/",
        "gpx_link": "https://goo.gl/xxbp3p"
    },
    {
        "name": "大嶺峒 Tai Leng Tung",
        "page_link": "https://follo3me.com/sai-kung/tai-leng-tung/",
        "gpx_link": "https://goo.gl/KSMRXb"
    },
    {
        "name": "烏洲 Wu Chau",
        "page_link": "https://follo3me.com/sai-kung/wu-chau/",
        "gpx_link": "https://goo.gl/YSkCtB"
    },
    {
        "name": "馬大石澗 Ma Tai Stream",
        "page_link": "https://follo3me.com/sai-kung/ma-tai-stream/",
        "gpx_link": "https://goo.gl/c85LqA"
    },
    {
        "name": "牛烏水塘 Ngau Wu Reservoir",
        "page_link": "https://follo3me.com/sai-kung/ngau-wu-reservoir/",
        "gpx_link": "https://goo.gl/GuR9eR"
    },
    {
        "name": "泥涌 Nai Chung",
        "page_link": "https://follo3me.com/sai-kung/nai-chung/",
        "gpx_link": ""
    },
    {
        "name": "吊手岩 (北脊) Tiu Shau Ngam (North Ridge)",
        "page_link": "https://follo3me.com/sai-kung/tiu-shau-ngam-north/",
        "gpx_link": "https://goo.gl/q64gQ1"
    },
    {
        "name": "棺材角 Ocean Point",
        "page_link": "https://follo3me.com/sai-kung/ocean-point/",
        "gpx_link": "https://goo.gl/A9CvYG"
    },
    {
        "name": "海下灣 Hoi Ha Wan",
        "page_link": "https://follo3me.com/sai-kung/hoi-ha-wan/",
        "gpx_link": "https://goo.gl/uasDxV"
    },
    {
        "name": "鹿赤走廊 Luk Wu-Chek Keng Path (吊鐘花)",
        "page_link": "https://follo3me.com/sai-kung/luk-chek-path/",
        "gpx_link": "https://goo.gl/dYUnW8"
    },
    {
        "name": "蠄蟝石頂 Kam Kui Shek Teng (吊鐘花)",
        "page_link": "https://follo3me.com/sai-kung/kam-kui-shek-teng/",
        "gpx_link": "https://goo.gl/xR43dh"
    },
    {
        "name": "曝罟灣 Po Kwu Wan",
        "page_link": "https://follo3me.com/sai-kung/po-kwu-wan/",
        "gpx_link": ""
    },
    {
        "name": "白虎山 Pak Fu Shan",
        "page_link": "https://follo3me.com/sai-kung/pak-fu-shan/",
        "gpx_link": ""
    },
    {
        "name": "黃牛石城 West Buffalo Stone Castle",
        "page_link": "https://follo3me.com/sai-kung/west-buffalo-stone-castle/",
        "gpx_link": "https://goo.gl/jP9F62"
    },
    {
        "name": "蚺蛇尖 (北脊) Sharp Peak (North Ridge)",
        "page_link": "https://follo3me.com/sai-kung/sharp-peak-north/",
        "gpx_link": "https://goo.gl/2ANKSC"
    },
    {
        "name": "東洋山 (芒草) Tung Yeung Shan",
        "page_link": "https://follo3me.com/sai-kung/tung-yeung-shan/",
        "gpx_link": "https://goo.gl/KpMxvD"
    },
    {
        "name": "雙鹿石澗 (四疊潭) Sheung Luk’s Four Pools",
        "page_link": "https://follo3me.com/sai-kung/sheung-luks-four-pools/",
        "gpx_link": "https://goo.gl/9qGcYx"
    },
    {
        "name": "大灣｜東灣 Tai Wan｜Tung Wan",
        "page_link": "https://follo3me.com/sai-kung/tai-wan-tung-wan/",
        "gpx_link": "https://goo.gl/2XCjKj"
    },
    {
        "name": "浪茄灣 Long Ke Wan",
        "page_link": "https://follo3me.com/sai-kung/long-ke-wan/",
        "gpx_link": "https://goo.gl/FVpWEz"
    },
    {
        "name": "小破邊 Siu Po Pin",
        "page_link": "https://follo3me.com/sai-kung/siu-po-pin/",
        "gpx_link": "https://goo.gl/pdiTMz"
    },
    {
        "name": "白水碗 Pak Shui Wun",
        "page_link": "https://follo3me.com/sai-kung/pak-shui-wun/",
        "gpx_link": "https://goo.gl/TAaB6k"
    },
    {
        "name": "太墩 Tai Tun",
        "page_link": "https://follo3me.com/sai-kung/tai-tun/",
        "gpx_link": "https://goo.gl/tHxFMT"
    },
    {
        "name": "麻南笏｜白馬咀 Ma Nam Wat｜Pak Ma Tsui",
        "page_link": "https://follo3me.com/sai-kung/ma-lam-wat/",
        "gpx_link": "https://goo.gl/PVBsGp"
    },
    {
        "name": "馬鞍山 Ma On Shan",
        "page_link": "https://follo3me.com/sai-kung/ma-on-shan/",
        "gpx_link": "https://goo.gl/Mb6oB2"
    },
    {
        "name": "起子灣 Hei Tsz Wan",
        "page_link": "https://follo3me.com/sai-kung/hei-tsz-wan/",
        "gpx_link": "https://goo.gl/Kebvot"
    },
    {
        "name": "浪茄仔 Long Ke Tsai",
        "page_link": "https://follo3me.com/sai-kung/long-ke-tsai/",
        "gpx_link": "https://goo.gl/RvPbeH"
    },
    {
        "name": "大枕蓋 Tai Cham Koi",
        "page_link": "https://follo3me.com/sai-kung/tai-cham-koi/",
        "gpx_link": "https://goo.gl/jFrErc"
    },
    {
        "name": "鹿巢石林 Luk Chau Stone Bushland",
        "page_link": "https://follo3me.com/sai-kung/luk-chau-stone-bushland/",
        "gpx_link": "https://goo.gl/5BfuZq"
    },
    {
        "name": "女婆山 Nui Po Shan",
        "page_link": "https://follo3me.com/sai-kung/nui-po-shan/",
        "gpx_link": "https://goo.gl/xRdr1L"
    },
    {
        "name": "石芽山 Shek Nga Shan",
        "page_link": "https://follo3me.com/sai-kung/shek-nga-shan/",
        "gpx_link": "https://goo.gl/rUcUJ6"
    },
    {
        "name": "黃牛山 (芒草) West Buffalo Hill",
        "page_link": "https://follo3me.com/sai-kung/west-buffalo-hill2/",
        "gpx_link": "https://goo.gl/KUZt1D"
    },
    {
        "name": "東洋山 Tung Yeung Shan",
        "page_link": "https://follo3me.com/sai-kung/tung-yeung-shan2/",
        "gpx_link": "https://goo.gl/rFC4VZ"
    },
    {
        "name": "田下山 Tin Ha Shan",
        "page_link": "https://follo3me.com/sai-kung/tin-ha-shan/",
        "gpx_link": "https://goo.gl/vT8Mmw"
    },
    {
        "name": "蛇石坳 She Shek Au",
        "page_link": "https://follo3me.com/sai-kung/she-shek-au/",
        "gpx_link": "https://goo.gl/xgxUEg"
    },
    {
        "name": "深涌 Sham Chung",
        "page_link": "https://follo3me.com/sai-kung/sham-chung/",
        "gpx_link": "https://goo.gl/zXEkxe"
    },
    {
        "name": "黃牛山｜水牛山 West Buffalo Hill｜Buffalo Hill",
        "page_link": "https://follo3me.com/sai-kung/buffalo-hill/",
        "gpx_link": "https://goo.gl/sK6EUE"
    },
    {
        "name": "白腊灣｜木棉洞 Pak Lap Wan｜Mok Min Cave",
        "page_link": "https://follo3me.com/sai-kung/pak-lap-wan/",
        "gpx_link": "https://goo.gl/ZPxQuX"
    },
    {
        "name": "破邊洲 Po Pin Chau",
        "page_link": "https://follo3me.com/sai-kung/po-pin-chau/",
        "gpx_link": "https://goo.gl/w2TsQ4"
    },
    {
        "name": "鹿湖郊遊徑 Luk Wu Country Trail",
        "page_link": "https://follo3me.com/sai-kung/luk-wu/",
        "gpx_link": "https://goo.gl/TtyudP"
    },
    {
        "name": "白沙灣 Hebe Haven",
        "page_link": "https://follo3me.com/sai-kung/hebe-haven/",
        "gpx_link": ""
    },
    {
        "name": "布袋澳 Po Toi O",
        "page_link": "https://follo3me.com/sai-kung/po-toi-o/",
        "gpx_link": ""
    },
    {
        "name": "大浪西灣 Tai Long Sai Wan",
        "page_link": "https://follo3me.com/sai-kung/sai-wan/",
        "gpx_link": "https://goo.gl/E3R23X"
    },
    {
        "name": "鹹田灣 Ham Tin Wan",
        "page_link": "https://follo3me.com/sai-kung/ham-tin-wan/",
        "gpx_link": "https://goo.gl/E3R23X"
    },
    {
        "name": "睇魚岩頂 Tai Yue Ngam Teng",
        "page_link": "https://follo3me.com/sai-kung/tynt/",
        "gpx_link": "https://goo.gl/u8FZMa"
    },
    {
        "name": "釣魚翁 High Junk Peak",
        "page_link": "https://follo3me.com/sai-kung/high-junk-peak/",
        "gpx_link": "https://goo.gl/EW8qnj"
    },
    {
        "name": "蚺蛇灣 Nam She Wan",
        "page_link": "https://follo3me.com/sai-kung/nam-she-wan/",
        "gpx_link": "https://goo.gl/PuZrPU"
    },
    {
        "name": "龍蝦灣 Lung Ha Wan",
        "page_link": "https://follo3me.com/sai-kung/lung-ha-wan/",
        "gpx_link": "https://goo.gl/gNkTSR"
    },
    {
        "name": "大坑墩 Tai Hang Tun",
        "page_link": "https://follo3me.com/sai-kung/tai-hang-tum/",
        "gpx_link": "https://goo.gl/HtgLmu"
    },
    {
        "name": "蚺蛇尖｜米粉頂 Sharp Peak｜Mai Fan Teng",
        "page_link": "https://follo3me.com/sai-kung/sharp-peak/",
        "gpx_link": "https://qrgo.page.link/8jHeg"
    },
    {
        "name": "萬宜水庫東壩 High Island (East Dam)",
        "page_link": "https://follo3me.com/sai-kung/high-island-east/",
        "gpx_link": "https://goo.gl/8EXLc8"
    },
    {
        "name": "萬宜水庫西壩 High Island (West Dam)",
        "page_link": "https://follo3me.com/sai-kung/high-island-reservoir-west-dam/",
        "gpx_link": "https://qrgo.page.link/RmUX6"
    },
    {
        "name": "蚺蛇尖 Sharp Peak",
        "page_link": "https://follo3me.com/sai-kung/sharp-peak2/",
        "gpx_link": "https://goo.gl/JFSALi"
    },
    {
        "name": "大金鐘 Pyramid Hill",
        "page_link": "https://follo3me.com/sai-kung/pyramid-hill/",
        "gpx_link": "https://goo.gl/16exEL"
    },
    {
        "name": "昂平高原 Ngong Ping Plateau",
        "page_link": "https://follo3me.com/sai-kung/ngong-ping-plateau/",
        "gpx_link": "https://goo.gl/iaYmpy"
    },
    {
        "name": "薄刀屻｜婆髻山 Pok To Yan｜Por Kai Shan",
        "page_link": "https://follo3me.com/lantau-island/pty-pks/",
        "gpx_link": "https://qrgo.page.link/U5pke"
    },
    {
        "name": "彌勒山 Nei Lak Shan",
        "page_link": "https://follo3me.com/lantau-island/nei-lak-shan/",
        "gpx_link": "https://qrgo.page.link/mQHdH"
    },
    {
        "name": "愉景灣水塘 Discovery Bay Reservoir",
        "page_link": "https://follo3me.com/lantau-island/discovery-bay-reservoir/",
        "gpx_link": "https://qrgo.page.link/tojz5"
    },
    {
        "name": "觀音山｜羗山 Kwun Yam Shan｜Keung Shan",
        "page_link": "https://follo3me.com/lantau-island/kwun-yam-keung-shan/",
        "gpx_link": "https://qrgo.page.link/CfkKX"
    },
    {
        "name": "鳳東飛流 East Phoenix Stream",
        "page_link": "https://follo3me.com/lantau-island/east-phoenix-stream/",
        "gpx_link": "https://qrgo.page.link/NJghR"
    },
    {
        "name": "石獅山 Shek Sze Shan",
        "page_link": "https://follo3me.com/lantau-island/shek-sze-shan/",
        "gpx_link": "https://qrgo.page.link/zjeMt"
    },
    {
        "name": "獅山｜象山 Sze Shan｜Cheung Shan",
        "page_link": "https://follo3me.com/lantau-island/sze-cheung-shan/",
        "gpx_link": "https://qrgo.page.link/pMwa1"
    },
    {
        "name": "鳳凰山 (芒草) Lantau Peak",
        "page_link": "https://follo3me.com/lantau-island/lantau-peak-2/",
        "gpx_link": "https://qrgo.page.link/j8buo"
    },
    {
        "name": "長索 Cheung Sok",
        "page_link": "https://follo3me.com/lantau-island/cheung-sok/",
        "gpx_link": "https://qrgo.page.link/idLvj"
    },
    {
        "name": "爛頭營 (天池) Lantau Mountain Camp",
        "page_link": "https://follo3me.com/lantau-island/lantau-mountain-camp/",
        "gpx_link": "https://qrgo.page.link/mDVAV"
    },
    {
        "name": "沙螺灣 Sha Lo Wan",
        "page_link": "https://follo3me.com/lantau-island/sha-lo-wan/",
        "gpx_link": "https://qrgo.page.link/bAqn1"
    },
    {
        "name": "北龍石澗 (天書壁) Pak Lung Stream",
        "page_link": "https://follo3me.com/lantau-island/pak-lung-stream/",
        "gpx_link": "https://qrgo.page.link/NbA5W"
    },
    {
        "name": "水口灣 Shui Hau Wan",
        "page_link": "https://follo3me.com/lantau-island/shui-hau-wan/",
        "gpx_link": ""
    },
    {
        "name": "鳳冠南巖 South Phoenix Trail",
        "page_link": "https://follo3me.com/lantau-island/south-phoenix-trail/",
        "gpx_link": "https://goo.gl/KdNoQa"
    },
    {
        "name": "羅漢塔｜南天門 Law Hon Tap｜South Heaven Gate",
        "page_link": "https://follo3me.com/lantau-island/law-hon-tap/",
        "gpx_link": "https://goo.gl/Tf1WQk"
    },
    {
        "name": "北天門 (天門棧道) North Heaven Gate",
        "page_link": "https://follo3me.com/lantau-island/north-heaven-gate/",
        "gpx_link": "https://goo.gl/Jz8dDp"
    },
    {
        "name": "芝麻灣石林 Chi Ma Wan Boulder Field",
        "page_link": "https://follo3me.com/lantau-island/chi-ma-wan-boulder-field/",
        "gpx_link": "https://goo.gl/rkN3Wv"
    },
    {
        "name": "分流 Fan Lau",
        "page_link": "https://follo3me.com/lantau-island/fan-lau/",
        "gpx_link": "https://goo.gl/wVtjru"
    },
    {
        "name": "煎魚灣｜雞翼角 Tsin Yue Wan｜Peaked Hill",
        "page_link": "https://follo3me.com/lantau-island/tsin-yue-wan/",
        "gpx_link": "https://goo.gl/LZpKtH"
    },
    {
        "name": "石壁郊遊徑 Shek Pik Country Trail",
        "page_link": "https://follo3me.com/lantau-island/shek-pik-country-trail/",
        "gpx_link": "https://goo.gl/9qqfz2"
    },
    {
        "name": "西狗牙嶺 Kau Nga Ling (West Ridge)",
        "page_link": "https://follo3me.com/lantau-island/kau-nga-ling-west/",
        "gpx_link": "https://goo.gl/FbGaiG"
    },
    {
        "name": "二東山 Yi Tung Shan",
        "page_link": "https://follo3me.com/lantau-island/yi-tung-shan/",
        "gpx_link": "https://goo.gl/SB5apS"
    },
    {
        "name": "陰澳灣 Yam O Wan",
        "page_link": "https://follo3me.com/lantau-island/yam-o-wan/",
        "gpx_link": ""
    },
    {
        "name": "萬丈布 (天池) Man Cheung Po’s Infinity Pool",
        "page_link": "https://follo3me.com/lantau-island/infinity-pool/",
        "gpx_link": "https://goo.gl/7QoXu8"
    },
    {
        "name": "大東山 Sunset Peak",
        "page_link": "https://follo3me.com/lantau-island/sunset-peak/",
        "gpx_link": "https://goo.gl/w45H1D"
    },
    {
        "name": "石壁水塘 Shek Pik Reservoir",
        "page_link": "https://follo3me.com/lantau-island/shek-pik-reservoir/",
        "gpx_link": ""
    },
    {
        "name": "大澳 Tai O",
        "page_link": "https://follo3me.com/lantau-island/tai-o/",
        "gpx_link": ""
    },
    {
        "name": "昂坪棧道 Ngong Ping Trail",
        "page_link": "https://follo3me.com/lantau-island/ngong-ping-trail/",
        "gpx_link": "https://goo.gl/Cu6t5E"
    },
    {
        "name": "東梅古道 Tung Mui Ancient Trail",
        "page_link": "https://follo3me.com/lantau-island/tung-mui-ancient/",
        "gpx_link": "https://goo.gl/QVTzgG"
    },
    {
        "name": "昂坪 Ngong Ping",
        "page_link": "https://follo3me.com/lantau-island/ngong-ping/",
        "gpx_link": ""
    },
    {
        "name": "禾徑山 Wo Keng Shan",
        "page_link": "https://follo3me.com/nent/wo-keng-shan/",
        "gpx_link": "https://qrgo.page.link/EK1aS"
    },
    {
        "name": "烏洲塘 Wu Chau Tong",
        "page_link": "https://follo3me.com/nent/wu-chau-tong/",
        "gpx_link": "https://qrgo.page.link/KGDLF"
    },
    {
        "name": "紅花寨 Hung Fa Chai",
        "page_link": "https://follo3me.com/nent/hung-fa-chai/",
        "gpx_link": "https://qrgo.page.link/a5uve"
    },
    {
        "name": "龍山 Lung Shan",
        "page_link": "https://follo3me.com/nent/lung-shan/",
        "gpx_link": "https://qrgo.page.link/FFHjz"
    },
    {
        "name": "黃竹角咀 Wong Chuk Kok Tsui",
        "page_link": "https://follo3me.com/nent/wong-chuk-kok-tsui/",
        "gpx_link": "https://goo.gl/9opp19"
    },
    {
        "name": "鳳坑 Fung Hang (蘆葦)",
        "page_link": "https://follo3me.com/nent/fung-hang/",
        "gpx_link": "https://goo.gl/Ehqo2H"
    },
    {
        "name": "吊燈籠｜芬箕托 Tiu Tang Lung｜Fan Kei Tok",
        "page_link": "https://follo3me.com/nent/fan-kei-tok/",
        "gpx_link": "https://goo.gl/4hNJmV"
    },
    {
        "name": "蓮麻坑｜紅花嶺 Lin Ma Hang｜Robin’s Nest",
        "page_link": "https://follo3me.com/nent/lmh-robins-nest/",
        "gpx_link": "https://goo.gl/HLPAzk"
    },
    {
        "name": "鎖羅盤 So Lo Pun",
        "page_link": "https://follo3me.com/nent/so-lo-pun/",
        "gpx_link": "https://goo.gl/YW8zQm"
    },
    {
        "name": "橫七古道 Wang Tsat Ancient Trail",
        "page_link": "https://follo3me.com/nent/wang-tsat-ancient-trail/",
        "gpx_link": "https://goo.gl/dFUfaJ"
    },
    {
        "name": "九龍坑山 Cloudy Hill",
        "page_link": "https://follo3me.com/nent/cloudy-hill/",
        "gpx_link": "https://goo.gl/qjJ1Zn"
    },
    {
        "name": "流水響 Lau Shui Heung (落羽松)",
        "page_link": "https://follo3me.com/nent/lau-shui-heung2/",
        "gpx_link": "https://goo.gl/8EAiA4"
    },
    {
        "name": "紅石門 Hung Shek Mun",
        "page_link": "https://follo3me.com/nent/hung-shek-mun/",
        "gpx_link": "https://goo.gl/JeUinR"
    },
    {
        "name": "谷埔 Kuk Po (蘆葦)",
        "page_link": "https://follo3me.com/nent/kuk-po/",
        "gpx_link": "https://goo.gl/vf2nFR"
    },
    {
        "name": "長牌墩 Cheung Pai Tun",
        "page_link": "https://follo3me.com/nent/cheung-pai-tun/",
        "gpx_link": "https://goo.gl/bwztiB"
    },
    {
        "name": "石板潭 (嘉龍潭) Ka Lung Pool",
        "page_link": "https://follo3me.com/nent/ka-lung-pool/",
        "gpx_link": "https://goo.gl/ihXLRy"
    },
    {
        "name": "鶴藪水塘 Hok Tau Reservoir",
        "page_link": "https://follo3me.com/nent/hok-tau-reservoir/",
        "gpx_link": "https://goo.gl/B6qogP"
    },
    {
        "name": "流水響 Lau Shui Heung",
        "page_link": "https://follo3me.com/nent/lau-shui-heung/",
        "gpx_link": "https://goo.gl/VBhJ93"
    },
    {
        "name": "荔枝窩 Lai Chi Wo",
        "page_link": "https://follo3me.com/nent/lai-chi-wo/",
        "gpx_link": "https://goo.gl/wU69Tb"
    },
    {
        "name": "八仙嶺 Pat Sin Leng",
        "page_link": "https://follo3me.com/nent/pat-sin-leng/",
        "gpx_link": "https://goo.gl/ZqvKLM"
    },
    {
        "name": "三椏灣 Sam A Wan",
        "page_link": "https://follo3me.com/nent/sam-a-wan/",
        "gpx_link": "https://goo.gl/kue9xh"
    },
    {
        "name": "吊燈籠 Tiu Tang Lung",
        "page_link": "https://follo3me.com/nent/tiu-tang-lung/",
        "gpx_link": "https://goo.gl/s1BY1W"
    },
    {
        "name": "烏蛟騰 Wu Kau Tang",
        "page_link": "https://follo3me.com/nent/wu-kau-tang/",
        "gpx_link": ""
    },
    {
        "name": "新娘潭 Bride’s Pool",
        "page_link": "https://follo3me.com/nent/brides-pool/",
        "gpx_link": "https://goo.gl/GTXRkB"
    },
    {
        "name": "麒麟山 Ki Lun Shan",
        "page_link": "https://follo3me.com/nwnt/ki-lun-shan/",
        "gpx_link": "https://qrgo.page.link/RK6gV"
    },
    {
        "name": "古洞水塘 Kwu Tung Reservoir",
        "page_link": "https://follo3me.com/nwnt/kwu-tung-reservoir/",
        "gpx_link": ""
    },
    {
        "name": "洪水坑水塘 Hung Shui Hang Reservoir",
        "page_link": "https://follo3me.com/nwnt/hung-shui-hang/",
        "gpx_link": "https://qrgo.page.link/shGmU"
    },
    {
        "name": "牛潭山 Ngau Tam Shan",
        "page_link": "https://follo3me.com/nwnt/ngau-tam-shan/",
        "gpx_link": "https://qrgo.page.link/xSRnh"
    },
    {
        "name": "黃泥墩水塘 Wong Nai Tun Irrigation Reservoir",
        "page_link": "https://follo3me.com/nwnt/wong-nai-tun/",
        "gpx_link": "https://qrgo.page.link/b92JT"
    },
    {
        "name": "牛牯嶺｜大刀屻 Ngau Kwu Leng｜Tai To Yan",
        "page_link": "https://follo3me.com/nwnt/ngau-kwu-leng/",
        "gpx_link": "https://qrgo.page.link/HTujo"
    },
    {
        "name": "屏山文物徑 Ping Shan Heritage Trail",
        "page_link": "https://follo3me.com/nwnt/ping-shan-heritage-trail/",
        "gpx_link": "https://qrgo.page.link/HLMGV"
    },
    {
        "name": "千島湖清景台 Reservoir Islands Viewpoint",
        "page_link": "https://follo3me.com/nwnt/reservoir-islands-viewpoint/",
        "gpx_link": "https://qrgo.page.link/QugjP"
    },
    {
        "name": "乾白石澗 Kon Pak Stream",
        "page_link": "https://follo3me.com/nwnt/kon-pak-stream/",
        "gpx_link": "https://qrgo.page.link/yEEjL"
    },
    {
        "name": "石龍坑 Shek Lung Stream",
        "page_link": "https://follo3me.com/nwnt/shek-lung-stream/",
        "gpx_link": "https://qrgo.page.link/Sx7KB"
    },
    {
        "name": "尖鼻咀 (龜山) Tsim Bei Tsui (Kwai Shan)",
        "page_link": "https://follo3me.com/nwnt/tsim-bei-tsui/",
        "gpx_link": "https://goo.gl/xX5AEB"
    },
    {
        "name": "乾山｜圓頭山 Kon Shan｜Yuen Tau Shan",
        "page_link": "https://follo3me.com/nwnt/kon-shan-yuen-tau-shan/",
        "gpx_link": "https://goo.gl/zu4JMn"
    },
    {
        "name": "桃坑峒 To Hang Tung",
        "page_link": "https://follo3me.com/nwnt/to-hang-tung/",
        "gpx_link": "https://goo.gl/E3dK5g"
    },
    {
        "name": "花香爐頂 Fa Heung Lo Teng",
        "page_link": "https://follo3me.com/nwnt/fa-heung-lo-teng/",
        "gpx_link": "https://goo.gl/H9Qa7m"
    },
    {
        "name": "甲龍古道 Kap Lung Ancient Trail",
        "page_link": "https://follo3me.com/nwnt/kap-lung-ancient-trail/",
        "gpx_link": "https://goo.gl/K2sbpS"
    },
    {
        "name": "青山 Castle Peak",
        "page_link": "https://follo3me.com/nwnt/castle-peak/",
        "gpx_link": "https://goo.gl/t6GDpe"
    },
    {
        "name": "千島‧九逕 Thousand and Nine Trail",
        "page_link": "https://follo3me.com/nwnt/thousand-and-nine-trail/",
        "gpx_link": "https://goo.gl/sYwD86"
    },
    {
        "name": "大欖涌千島湖 Thousand Islands",
        "page_link": "https://follo3me.com/nwnt/the-thousand-island/",
        "gpx_link": "https://goo.gl/XjFiwY"
    },
    {
        "name": "九逕山 Kau Keng Shan",
        "page_link": "https://follo3me.com/nwnt/kau-keng-shan/",
        "gpx_link": "https://goo.gl/XUg6YZ"
    },
    {
        "name": "藍地水塘 Lam Tei Reservoir",
        "page_link": "https://follo3me.com/nwnt/lam-tei-reservoir/",
        "gpx_link": "https://goo.gl/5kmpjc"
    },
    {
        "name": "石龍拱 Shek Lung Kung",
        "page_link": "https://follo3me.com/nwnt/shek-lung-kung/",
        "gpx_link": "https://goo.gl/yS2qjD"
    },
    {
        "name": "蛇嶺 She Leng",
        "page_link": "https://follo3me.com/nwnt/she-leng/",
        "gpx_link": "https://goo.gl/PwuBov"
    },
    {
        "name": "髻山 Kai Shan",
        "page_link": "https://follo3me.com/nwnt/kai-shan/",
        "gpx_link": "https://goo.gl/Rw8GcR"
    },
    {
        "name": "大石磨 Crest Hill a.k.a. Tai Shek Mo",
        "page_link": "https://follo3me.com/nwnt/crest-hill/",
        "gpx_link": "https://goo.gl/NQC2eN"
    },
    {
        "name": "良田坳峽谷 (菠蘿山) Leung Tin Au Valley",
        "page_link": "https://follo3me.com/nwnt/por-lo-shan/",
        "gpx_link": "https://goo.gl/X46zs8"
    },
    {
        "name": "大生圍 Tai Sang Wai",
        "page_link": "https://follo3me.com/nwnt/tai-sang-wai/",
        "gpx_link": ""
    },
    {
        "name": "大刀屻 Tai To Yan",
        "page_link": "https://follo3me.com/nwnt/tai-to-yan/",
        "gpx_link": "https://goo.gl/syaa2T"
    },
    {
        "name": "南生圍 Nam Sang Wai",
        "page_link": "https://follo3me.com/nwnt/nam-sang-wai/",
        "gpx_link": ""
    },
    {
        "name": "大棠楓香林 Tai Tong Sweet Gum Woods",
        "page_link": "https://follo3me.com/nwnt/tai-tong/",
        "gpx_link": "https://goo.gl/2BrvBx"
    },
    {
        "name": "馬草壟 Ma Tso Lung",
        "page_link": "https://follo3me.com/nwnt/ma-tso-lung/",
        "gpx_link": ""
    },
    {
        "name": "石崗 (木棉) Shek Kong",
        "page_link": "https://follo3me.com/nwnt/shek-kong/",
        "gpx_link": ""
    },
    {
        "name": "下白泥 Ha Pak Nai",
        "page_link": "https://follo3me.com/nwnt/ha-pak-nai/",
        "gpx_link": ""
    },
    {
        "name": "走馬崗｜燕岩頂 Chau Ma Kong｜Yin Ngam Teng",
        "page_link": "https://follo3me.com/cnt/chau-ma-kong/",
        "gpx_link": "https://qrgo.page.link/qHVUH"
    },
    {
        "name": "社山 She Shan",
        "page_link": "https://follo3me.com/cnt/she-shan/",
        "gpx_link": "https://goo.gl/4LY9me"
    },
    {
        "name": "排頭坑 Pai Tau Hang (吊鐘王)",
        "page_link": "https://follo3me.com/cnt/pai-tau-hang/",
        "gpx_link": "https://goo.gl/1FfNGR"
    },
    {
        "name": "孖指徑 (城門戰地遺跡徑) Smuggler’s Ridge (Shing Mun War Relics Trail)",
        "page_link": "https://follo3me.com/cnt/smugglers-ridge/",
        "gpx_link": "https://goo.gl/koNPcR"
    },
    {
        "name": "道風山 To Fung Shan",
        "page_link": "https://follo3me.com/cnt/to-fung-shan/",
        "gpx_link": "https://goo.gl/pT5fxz"
    },
    {
        "name": "龍門郊遊徑 Lung Mun Country Trail",
        "page_link": "https://follo3me.com/cnt/lung-mun-country-trail/",
        "gpx_link": "https://goo.gl/32KEeT"
    },
    {
        "name": "草山 Grassy Hill",
        "page_link": "https://follo3me.com/cnt/grassy-hill/",
        "gpx_link": "https://goo.gl/ipK5CS"
    },
    {
        "name": "妙高台 Miu Ko Toi",
        "page_link": "https://follo3me.com/cnt/miu-ko-toi/",
        "gpx_link": "https://goo.gl/AhJYYE"
    },
    {
        "name": "禾秧山 Woo Yeung Shan",
        "page_link": "https://follo3me.com/cnt/woo-yeung-shan/",
        "gpx_link": "https://goo.gl/mdbTwk"
    },
    {
        "name": "相思林徑 Sheung Sze Forest Trail",
        "page_link": "https://follo3me.com/cnt/sheung-sze/",
        "gpx_link": "https://goo.gl/xZdapS"
    },
    {
        "name": "大帽山 Tai Mo Shan",
        "page_link": "https://follo3me.com/cnt/tai-mo-shan1/",
        "gpx_link": "https://goo.gl/MMWSYP"
    },
    {
        "name": "四方山 Sze Fong Shan",
        "page_link": "https://follo3me.com/cnt/sze-fong-shan/",
        "gpx_link": "https://goo.gl/mXbXVb"
    },
    {
        "name": "燕岩 Yin Ngam",
        "page_link": "https://follo3me.com/cnt/yin-ngam/",
        "gpx_link": "https://goo.gl/fq2fyJ"
    },
    {
        "name": "針山 Needle Hill",
        "page_link": "https://follo3me.com/cnt/needle-hill/",
        "gpx_link": "https://goo.gl/9twJ4h"
    },
    {
        "name": "石梨貝水塘 Shek Lei Pui Reservoir",
        "page_link": "https://follo3me.com/cnt/shek-lei-pui/",
        "gpx_link": "https://goo.gl/1Wyo3g"
    },
    {
        "name": "九龍水塘 Kowloon Reservoir",
        "page_link": "https://follo3me.com/cnt/kowloon-reservoir/",
        "gpx_link": "https://goo.gl/5cTeFX"
    },
    {
        "name": "青衣回歸紀念徑 Tsing Yi Nature Trail",
        "page_link": "https://follo3me.com/cnt/tsing-yi-trail/",
        "gpx_link": "https://goo.gl/Yim1g9"
    },
    {
        "name": "青衣公園 Tsing Yi Park (落羽松‧水杉‧水松)",
        "page_link": "https://follo3me.com/cnt/tsing-yi-park/",
        "gpx_link": ""
    },
    {
        "name": "城門水塘 Shing Mun Reservoir",
        "page_link": "https://follo3me.com/cnt/shing-mun/",
        "gpx_link": "https://goo.gl/KuKpDd"
    },
    {
        "name": "下城門水塘 Lower Shing Mun Reservoir",
        "page_link": "https://follo3me.com/cnt/lower-shing-mun/",
        "gpx_link": "https://goo.gl/5dxmLj"
    },
    {
        "name": "黑山頂 Hak Shan Teng",
        "page_link": "https://follo3me.com/islands/hak-shan-teng/",
        "gpx_link": "https://qrgo.page.link/TgXgP"
    },
    {
        "name": "大癩痢 Trio Island",
        "page_link": "https://follo3me.com/islands/trio-island/",
        "gpx_link": ""
    },
    {
        "name": "牛尾洲 Shelter Island",
        "page_link": "https://follo3me.com/islands/shelter-island/",
        "gpx_link": ""
    },
    {
        "name": "孝子角 Hau Tsz Kok",
        "page_link": "https://follo3me.com/islands/hau-tsz-kok/",
        "gpx_link": "https://goo.gl/39vjVN"
    },
    {
        "name": "吊鐘洲 Jin Island",
        "page_link": "https://follo3me.com/islands/tiu-chung-chau/",
        "gpx_link": "https://goo.gl/Vu59KP"
    },
    {
        "name": "沙塘口山 (合掌崖) Bluff Island",
        "page_link": "https://follo3me.com/islands/bluff-island/",
        "gpx_link": "https://goo.gl/uVJwMp"
    },
    {
        "name": "橫瀾島 Waglan Island",
        "page_link": "https://follo3me.com/islands/waglan-island/",
        "gpx_link": ""
    },
    {
        "name": "沙洲 Sha Chau",
        "page_link": "https://follo3me.com/islands/sha-chau/",
        "gpx_link": "https://goo.gl/vkTKnS"
    },
    {
        "name": "坪洲 Peng Chau",
        "page_link": "https://follo3me.com/islands/peng-chau/",
        "gpx_link": "https://goo.gl/5Rw9V1"
    },
    {
        "name": "長洲 (北角咀) Cheung Chau (Pak Kok Tsui)",
        "page_link": "https://follo3me.com/islands/pak-kok-tsui/",
        "gpx_link": "https://goo.gl/24agTK"
    },
    {
        "name": "長洲 (小長城) Cheung Chau (Mini Great Wall)",
        "page_link": "https://follo3me.com/islands/mini-great-wall/",
        "gpx_link": "https://goo.gl/u8mL8g"
    },
    {
        "name": "往灣洲 Double Island",
        "page_link": "https://follo3me.com/islands/double-island/",
        "gpx_link": "https://goo.gl/azGPXo"
    },
    {
        "name": "白沙洲 (豬頭洲) Round Island",
        "page_link": "https://follo3me.com/islands/round-island/",
        "gpx_link": ""
    },
    {
        "name": "菱角山 Ling Kok Shan",
        "page_link": "https://follo3me.com/islands/ling-kok-shan/",
        "gpx_link": "https://goo.gl/xvs5nQ"
    },
    {
        "name": "橋咀島 (橋頭) Sharp Island (Kiu Tau)",
        "page_link": "https://follo3me.com/islands/sharp-island/",
        "gpx_link": "https://goo.gl/ume14F"
    },
    {
        "name": "東澳 (石排灣) Tung O (Shek Pai Wan)",
        "page_link": "https://follo3me.com/islands/tung-o/",
        "gpx_link": "https://goo.gl/vkbiLN"
    },
    {
        "name": "赤洲 (赤洲頂) Port Island (Chek Chau Teng)",
        "page_link": "https://follo3me.com/islands/chek-chau-teng/",
        "gpx_link": "https://goo.gl/29zz2J"
    },
    {
        "name": "南果洲 South Ninepin Island",
        "page_link": "https://follo3me.com/islands/s-ninepin/",
        "gpx_link": "https://goo.gl/7TLfct"
    },
    {
        "name": "火石洲 Basalt Island",
        "page_link": "https://follo3me.com/islands/basalt-island/",
        "gpx_link": "https://goo.gl/QNWxLx"
    },
    {
        "name": "塔門 Grass Island",
        "page_link": "https://follo3me.com/islands/grass-island/",
        "gpx_link": "https://goo.gl/QdZjX3"
    },
    {
        "name": "蒲台島 Po Toi Island",
        "page_link": "https://follo3me.com/islands/po-toi-island/",
        "gpx_link": "https://goo.gl/28vSCM"
    },
    {
        "name": "南丫島 (榕樹灣) Lamma Island (Yung Shue Wan)",
        "page_link": "https://follo3me.com/islands/yung-shue-wan/",
        "gpx_link": "https://goo.gl/St81yo"
    },
    {
        "name": "北果洲 North Ninepin Island",
        "page_link": "https://follo3me.com/islands/ninepin/",
        "gpx_link": "https://goo.gl/vuneSQ"
    },
    {
        "name": "東平洲 Tung Ping Chau",
        "page_link": "https://follo3me.com/islands/tung-ping-chau/",
        "gpx_link": "https://goo.gl/CwndYf"
    }
]
