[
    {
        "name": "野豬徑 Boa Vista",
        "page_link": "https://follo3me.com/hk/boa-vista/",
        "pic_link": "https://i2.wp.com/follo3me.com/wp-content/uploads/2021/01/boavista.jpg?resize=1180%2C435&ssl=1"
    },
    {
        "name": "玉桂山 (佛爺山) Yuk Kwai Shan",
        "page_link": "https://follo3me.com/hk/yuk-kwai-shan/",
        "pic_link": "https://i0.wp.com/follo3me.com/wp-content/uploads/2020/08/yukkwaishan.jpg?resize=1180%2C435&ssl=1"
    },
    {
        "name": "鶴咀山 D’ Aguilar Peak",
        "page_link": "https://follo3me.com/hk/hok-tsui-shan/",
        "pic_link": "https://i1.wp.com/follo3me.com/wp-content/uploads/2020/05/daguilarpeak.jpg?resize=1180%2C435&ssl=1"
    },
    {
        "name": "砵甸乍山 Pottinger Peak",
        "page_link": "https://follo3me.com/hk/pottinger-peak/",
        "pic_link": "https://i2.wp.com/follo3me.com/wp-content/uploads/2019/11/pottinger.jpg?resize=1180%2C435&ssl=1"
    },
    {
        "name": "柏鰂石澗 (錦鯉坑) Pak Zak Stream",
        "page_link": "https://follo3me.com/hk/pak-zak-stream/",
        "pic_link": "https://i0.wp.com/follo3me.com/wp-content/uploads/2020/01/Pak-Zak.jpg?resize=1180%2C435&ssl=1"
    },
    {
        "name": "薄扶林水塘 Pok Fu Lam Reservoir",
        "page_link": "https://follo3me.com/hk/pok-fu-lam-reservoir/",
        "pic_link": "https://i2.wp.com/follo3me.com/wp-content/uploads/2019/12/pokfulam.jpg?resize=1180%2C435&ssl=1"
    },
    {
        "name": "南風道林地｜班納山 Nam Fung Rd. Woodland｜Bennet’s Hill",
        "page_link": "https://follo3me.com/hk/nam-fung-woodland/",
        "pic_link": "https://i0.wp.com/follo3me.com/wp-content/uploads/2019/12/namfungrd.jpg?resize=1180%2C435&ssl=1"
    },
    {
        "name": "黃泥涌水塘 Wong Nai Chung Reservoir",
        "page_link": "https://follo3me.com/hk/wong-nai-chung-reservoir/",
        "pic_link": "https://i0.wp.com/follo3me.com/wp-content/uploads/2020/01/wongnaichung.jpg?resize=1180%2C435&ssl=1"
    },
    {
        "name": "寶雲道健身徑 Bowen Rd. Fitness Trail (姻緣石 Lover’s Rock)",
        "page_link": "https://follo3me.com/hk/bowen-rd/",
        "pic_link": "https://i2.wp.com/follo3me.com/wp-content/uploads/2020/01/bowenrd.jpg?resize=1180%2C435&ssl=1"
    },
    {
        "name": "大潭水務文物徑 Tai Tam Waterworks Heritage Trail",
        "page_link": "https://follo3me.com/hk/taitam-waterworks/",
        "pic_link": "https://i1.wp.com/follo3me.com/wp-content/uploads/2020/01/Tai-Tam-Waterworks.jpg?resize=1180%2C435&ssl=1"
    },
    {
        "name": "康柏郊遊徑 Hong Pak Country Trail",
        "page_link": "https://follo3me.com/hk/hong-pak-country-trail/",
        "pic_link": "https://i2.wp.com/follo3me.com/wp-content/uploads/2020/03/hongpakcountrytrail.jpg?resize=1180%2C435&ssl=1"
    },
    {
        "name": "斜炮頂 (犀牛石) Che Pau Teng",
        "page_link": "https://follo3me.com/hk/che-pau-teng/",
        "pic_link": "https://i1.wp.com/follo3me.com/wp-content/uploads/2020/01/chepauteng.jpg?resize=1180%2C435&ssl=1"
    },
    {
        "name": "紫羅蘭山 Violet Hill",
        "page_link": "https://follo3me.com/hk/violet-hill/",
        "pic_link": "https://i1.wp.com/follo3me.com/wp-content/uploads/2020/01/violethill.jpg?resize=1180%2C435&ssl=1"
    },
    {
        "name": "南朗山 Brick Hill",
        "page_link": "https://follo3me.com/hk/brick-hill/",
        "pic_link": "https://i1.wp.com/follo3me.com/wp-content/uploads/2020/01/brickhill.jpg?resize=1180%2C435&ssl=1"
    },
    {
        "name": "畢拿山 Mount Butler",
        "page_link": "https://follo3me.com/hk/mount-butler/",
        "pic_link": "https://i1.wp.com/follo3me.com/wp-content/uploads/2020/01/mtbutler.jpg?resize=1180%2C435&ssl=1"
    },
    {
        "name": "小馬山 Siu Ma Shan",
        "page_link": "https://follo3me.com/hk/siu-ma-shan/",
        "pic_link": "https://i2.wp.com/follo3me.com/wp-content/uploads/2020/01/siumashan2.jpg?resize=1180%2C435&ssl=1"
    },
    {
        "name": "鴨脷排 Ap Lei Pai",
        "page_link": "https://follo3me.com/hk/ap-lei-pai/",
        "pic_link": "https://i2.wp.com/follo3me.com/wp-content/uploads/2020/01/apleipai.jpg?resize=1180%2C435&ssl=1"
    },
    {
        "name": "玉桂山 Mount Johnston",
        "page_link": "https://follo3me.com/hk/mount-johnston/",
        "pic_link": "https://i0.wp.com/follo3me.com/wp-content/uploads/2020/01/mtjohnston.jpg?resize=1180%2C435&ssl=1"
    },
    {
        "name": "龍虎山 Lung Fu Shan",
        "page_link": "https://follo3me.com/hk/lung-fu-shan/",
        "pic_link": "https://i0.wp.com/follo3me.com/wp-content/uploads/2020/02/lungfushan.jpg?resize=1180%2C435&ssl=1"
    },
    {
        "name": "香港仔水塘 Aberdeen Reservoirs",
        "page_link": "https://follo3me.com/hk/aberdeen-reservoirs/",
        "pic_link": "https://i2.wp.com/follo3me.com/wp-content/uploads/2020/02/aberdeenreservoirs.jpg?resize=1180%2C435&ssl=1"
    },
    {
        "name": "西高山 High West",
        "page_link": "https://follo3me.com/hk/high-west/",
        "pic_link": "https://i0.wp.com/follo3me.com/wp-content/uploads/2020/02/highwest.jpg?resize=1180%2C435&ssl=1"
    },
    {
        "name": "黑角頭 Cape Collinson",
        "page_link": "https://follo3me.com/hk/cape-collinson/",
        "pic_link": "https://i2.wp.com/follo3me.com/wp-content/uploads/2020/02/capecollinson.jpg?resize=1180%2C435&ssl=1"
    },
    {
        "name": "潭崗瀑布 Tai Tam Mound Waterfall",
        "page_link": "https://follo3me.com/hk/tai-tam-mound/",
        "pic_link": "https://i1.wp.com/follo3me.com/wp-content/uploads/2020/02/taitammount.jpg?resize=1180%2C435&ssl=1"
    },
    {
        "name": "大潭水塘 Tai Tam Reservoirs",
        "page_link": "https://follo3me.com/hk/tai-tam-reservoir/",
        "pic_link": "https://i2.wp.com/follo3me.com/wp-content/uploads/2020/02/taitamresevoir.jpg?resize=1180%2C435&ssl=1"
    },
    {
        "name": "鶴咀半島 Cape D’Aguilar Peninsula",
        "page_link": "https://follo3me.com/hk/cape-daguilar-p/",
        "pic_link": "https://i1.wp.com/follo3me.com/wp-content/uploads/2020/03/capedaguilar.jpg?resize=1180%2C435&ssl=1"
    },
    {
        "name": "龍脊 Dragon’s Back",
        "page_link": "https://follo3me.com/hk/dragons-back/",
        "pic_link": "https://i0.wp.com/follo3me.com/wp-content/uploads/2020/02/dragonback.jpg?resize=1180%2C435&ssl=1"
    },
    {
        "name": "瀑布灣 (華富瀑布) Waterfall Bay",
        "page_link": "https://follo3me.com/hk/waterfall-bay/",
        "pic_link": "https://i2.wp.com/follo3me.com/wp-content/uploads/2020/03/waterfallbay.jpg?resize=1180%2C435&ssl=1"
    },
    {
        "name": "大浪灣 Big Wave Bay",
        "page_link": "https://follo3me.com/hk/big-wave-bay/",
        "pic_link": "https://i1.wp.com/follo3me.com/wp-content/uploads/2019/12/bigwavebay.jpg?resize=1180%2C435&ssl=1"
    },
    {
        "name": "柏架山紅屋 Mount Parker Woodside",
        "page_link": "https://follo3me.com/hk/woodside/",
        "pic_link": "https://i0.wp.com/follo3me.com/wp-content/uploads/2020/02/mountparkerwoodside.jpg?resize=1180%2C435&ssl=1"
    },
    {
        "name": "石澳 Shek O",
        "page_link": "https://follo3me.com/hk/shek-o/",
        "pic_link": "https://i0.wp.com/follo3me.com/wp-content/uploads/2020/03/sheko.jpg?resize=1180%2C435&ssl=1"
    },
    {
        "name": "五桂山 Black Hill",
        "page_link": "https://follo3me.com/kowloon-tko/black-hill/",
        "pic_link": "https://i0.wp.com/follo3me.com/wp-content/uploads/2021/01/blackhill.jpg?resize=1180%2C435&ssl=1"
    },
    {
        "name": "十二笏 Shap Yi Wat",
        "page_link": "https://follo3me.com/kowloon-tko/shap-yi-wat/",
        "pic_link": "https://i2.wp.com/follo3me.com/wp-content/uploads/2020/02/shapyiwat.jpg?resize=1180%2C435&ssl=1"
    },
    {
        "name": "照鏡環山 Chiu Keng Wan Shan",
        "page_link": "https://follo3me.com/kowloon-tko/chiu-keng-wan-shan/",
        "pic_link": "https://i0.wp.com/follo3me.com/wp-content/uploads/2020/01/chiukengwanshan.jpg?resize=1180%2C435&ssl=1"
    },
    {
        "name": "大老山 Tate’s Cairn",
        "page_link": "https://follo3me.com/kowloon-tko/tates-cairn/",
        "pic_link": "https://i0.wp.com/follo3me.com/wp-content/uploads/2019/12/tatescairn2.jpg?resize=1180%2C435&ssl=1"
    },
    {
        "name": "獅子山 (石馬脊) Lion Rock (Rock Horse Ridge)",
        "page_link": "https://follo3me.com/kowloon-tko/lion-rock-horse/",
        "pic_link": "https://i2.wp.com/follo3me.com/wp-content/uploads/2019/12/lionrock-shekma.jpg?resize=1180%2C435&ssl=1"
    },
    {
        "name": "筆架沖溝 Beacon Hill Gully",
        "page_link": "https://follo3me.com/kowloon-tko/beacon-hill-gully/",
        "pic_link": "https://i1.wp.com/follo3me.com/wp-content/uploads/2019/12/beaconhillgully.jpg?resize=1180%2C435&ssl=1"
    },
    {
        "name": "飛鵝山 Kowloon Peak",
        "page_link": "https://follo3me.com/kowloon-tko/kowloon-peak-2/",
        "pic_link": "https://i0.wp.com/follo3me.com/wp-content/uploads/2020/01/kowloonpeak.jpg?resize=1180%2C435&ssl=1"
    },
    {
        "name": "筆架山 Beacon Hill",
        "page_link": "https://follo3me.com/kowloon-tko/beacon-hill/",
        "pic_link": "https://i1.wp.com/follo3me.com/wp-content/uploads/2020/03/beaconhill.jpg?resize=1180%2C435&ssl=1"
    },
    {
        "name": "雞胸山 Unicorn Ridge",
        "page_link": "https://follo3me.com/kowloon-tko/unicorn-ridge/",
        "pic_link": "https://i1.wp.com/follo3me.com/wp-content/uploads/2020/01/unicornridge.jpg?resize=1180%2C435&ssl=1"
    },
    {
        "name": "鴨仔山 Duckling Hill",
        "page_link": "https://follo3me.com/kowloon-tko/duckling-hill/",
        "pic_link": "https://i1.wp.com/follo3me.com/wp-content/uploads/2020/01/ducklinghill.jpg?resize=1180%2C435&ssl=1"
    },
    {
        "name": "飛鵝山 (芒草) Kowloon Peak",
        "page_link": "https://follo3me.com/kowloon-tko/kowloon-peak/",
        "pic_link": "https://i1.wp.com/follo3me.com/wp-content/uploads/2020/02/kowloonpeak2.jpg?resize=1180%2C435&ssl=1"
    },
    {
        "name": "獅子山 Lion Rock",
        "page_link": "https://follo3me.com/kowloon-tko/lion-rock/",
        "pic_link": "https://i2.wp.com/follo3me.com/wp-content/uploads/2019/12/lionrock.jpg?resize=1180%2C435&ssl=1"
    },
    {
        "name": "嘉頓山 Garden Hill",
        "page_link": "https://follo3me.com/kowloon-tko/garden-hill/",
        "pic_link": "https://i2.wp.com/follo3me.com/wp-content/uploads/2020/05/gardenhill1.jpg?resize=1180%2C435&ssl=1"
    },
    {
        "name": "茅湖山廢堡 Mau Wu Lookout",
        "page_link": "https://follo3me.com/kowloon-tko/mau-wu-lookout/",
        "pic_link": "https://i2.wp.com/follo3me.com/wp-content/uploads/2020/02/mauwulookout.jpg?resize=1180%2C435&ssl=1"
    },
    {
        "name": "短咀 Tuen Tsui",
        "page_link": "https://follo3me.com/sai-kung/tuen-tsui/",
        "pic_link": "https://i2.wp.com/follo3me.com/wp-content/uploads/2020/11/tuentsui.jpg?resize=1180%2C435&ssl=1"
    },
    {
        "name": "太墩｜雷打石 Tai Tun｜Lui Ta Shek",
        "page_link": "https://follo3me.com/sai-kung/tai-lui/",
        "pic_link": "https://i2.wp.com/follo3me.com/wp-content/uploads/2020/06/taitun-luitashek.jpg?resize=1180%2C435&ssl=1"
    },
    {
        "name": "茅坪古道 Mau Ping Ancient Trail",
        "page_link": "https://follo3me.com/sai-kung/mau-ping/",
        "pic_link": "https://i0.wp.com/follo3me.com/wp-content/uploads/2020/05/mauping.jpg?resize=1180%2C435&ssl=1"
    },
    {
        "name": "東龍二輋 Tung Lung Yi Che",
        "page_link": "https://follo3me.com/sai-kung/tung-lung-yi-che/",
        "pic_link": "https://i0.wp.com/follo3me.com/wp-content/uploads/2020/05/tunglungyiche2.jpg?resize=1180%2C435&ssl=1"
    },
    {
        "name": "大蛇灣 Tai She Wan",
        "page_link": "https://follo3me.com/sai-kung/tai-she-wan/",
        "pic_link": "https://i0.wp.com/follo3me.com/wp-content/uploads/2020/03/taishewan.jpg?resize=1180%2C435&ssl=1"
    },
    {
        "name": "長咀 Cheung Tsui",
        "page_link": "https://follo3me.com/sai-kung/cheung-tsui/",
        "pic_link": "https://i1.wp.com/follo3me.com/wp-content/uploads/2019/12/cheungtsui.jpg?resize=1180%2C435&ssl=1"
    },
    {
        "name": "芙蓉別 Fu Yung Pit",
        "page_link": "https://follo3me.com/sai-kung/fu-yung-pit/",
        "pic_link": "https://i0.wp.com/follo3me.com/wp-content/uploads/2019/12/fuyungpit.jpg?resize=1180%2C435&ssl=1"
    },
    {
        "name": "標尖角 Biu Tsim Kok",
        "page_link": "https://follo3me.com/sai-kung/biu-tsim-kok/",
        "pic_link": "https://i0.wp.com/follo3me.com/wp-content/uploads/2020/01/biutsimkok.jpg?resize=1180%2C435&ssl=1"
    },
    {
        "name": "沙橋頭｜馬頭環 Sha Kiu Tau｜Ma Tau Wan",
        "page_link": "https://follo3me.com/sai-kung/sha-kiu-tau/",
        "pic_link": "https://i2.wp.com/follo3me.com/wp-content/uploads/2019/11/shakiutau.jpg?resize=1180%2C435&ssl=1"
    },
    {
        "name": "涌沙頂 Chung Sha Teng",
        "page_link": "https://follo3me.com/sai-kung/chung-sha-teng/",
        "pic_link": "https://i0.wp.com/follo3me.com/wp-content/uploads/2020/01/chungshateng.jpg?resize=1180%2C435&ssl=1"
    },
    {
        "name": "蠄蟝石頂 Kam Kui Shek Teng",
        "page_link": "https://follo3me.com/sai-kung/kksteng/",
        "pic_link": "https://i0.wp.com/follo3me.com/wp-content/uploads/2020/01/kamkuishekteng.jpg?resize=1180%2C435&ssl=1"
    },
    {
        "name": "石芽山 (北脊) Shek Nga Shan (North Ridge)",
        "page_link": "https://follo3me.com/sai-kung/shek-nga-shan-north-ridge/",
        "pic_link": "https://i0.wp.com/follo3me.com/wp-content/uploads/2020/01/sheknganorth.jpg?resize=1180%2C435&ssl=1"
    },
    {
        "name": "浪茄灣｜罾棚角咀 Long Ke Wan｜Tsang Pang Kok Tsui",
        "page_link": "https://follo3me.com/sai-kung/long-tsang/",
        "pic_link": "https://i0.wp.com/follo3me.com/wp-content/uploads/2020/01/longkei-tsangpangkok.jpg?resize=1180%2C435&ssl=1"
    },
    {
        "name": "撿豬灣｜破邊洲 Kim Chu Wan｜Po Pin Chau",
        "page_link": "https://follo3me.com/sai-kung/kim-chu-wan/",
        "pic_link": "https://i2.wp.com/follo3me.com/wp-content/uploads/2020/01/Kim-Chu-Wan-Po-Pin-Chau.jpg?resize=1180%2C435&ssl=1"
    },
    {
        "name": "罾棚角咀 Tsang Pang Kok Tsui",
        "page_link": "https://follo3me.com/sai-kung/tsang-pang-kok-tsui/",
        "pic_link": "https://i2.wp.com/follo3me.com/wp-content/uploads/2020/01/tsangpangkoktsui.jpg?resize=1180%2C435&ssl=1"
    },
    {
        "name": "綠蛋島 (爛排) Green Egg Island",
        "page_link": "https://follo3me.com/sai-kung/green-egg-island/",
        "pic_link": "https://i2.wp.com/follo3me.com/wp-content/uploads/2020/01/greenegg.jpg?resize=1180%2C435&ssl=1"
    },
    {
        "name": "花山｜萬柱海岸 Fa Shan",
        "page_link": "https://follo3me.com/sai-kung/fa-shan/",
        "pic_link": "https://i0.wp.com/follo3me.com/wp-content/uploads/2020/01/fashan.jpg?resize=1180%2C435&ssl=1"
    },
    {
        "name": "大嶺峒 Tai Leng Tung",
        "page_link": "https://follo3me.com/sai-kung/tai-leng-tung/",
        "pic_link": "https://i0.wp.com/follo3me.com/wp-content/uploads/2020/01/tailengtung.jpg?resize=1180%2C435&ssl=1"
    },
    {
        "name": "烏洲 Wu Chau",
        "page_link": "https://follo3me.com/sai-kung/wu-chau/",
        "pic_link": "https://i0.wp.com/follo3me.com/wp-content/uploads/2020/01/wuchau.jpg?resize=1180%2C435&ssl=1"
    },
    {
        "name": "馬大石澗 Ma Tai Stream",
        "page_link": "https://follo3me.com/sai-kung/ma-tai-stream/",
        "pic_link": "https://i1.wp.com/follo3me.com/wp-content/uploads/2020/01/mataistream.jpg?resize=1180%2C435&ssl=1"
    },
    {
        "name": "牛烏水塘 Ngau Wu Reservoir",
        "page_link": "https://follo3me.com/sai-kung/ngau-wu-reservoir/",
        "pic_link": "https://i2.wp.com/follo3me.com/wp-content/uploads/2020/01/ngauwu.jpg?resize=1180%2C435&ssl=1"
    },
    {
        "name": "泥涌 Nai Chung",
        "page_link": "https://follo3me.com/sai-kung/nai-chung/",
        "pic_link": "https://i2.wp.com/follo3me.com/wp-content/uploads/2020/01/naichung.jpg?resize=1180%2C435&ssl=1"
    },
    {
        "name": "吊手岩 (北脊) Tiu Shau Ngam (North Ridge)",
        "page_link": "https://follo3me.com/sai-kung/tiu-shau-ngam-north/",
        "pic_link": "https://i2.wp.com/follo3me.com/wp-content/uploads/2020/03/tiushaungamnorth.jpg?resize=1180%2C435&ssl=1"
    },
    {
        "name": "棺材角 Ocean Point",
        "page_link": "https://follo3me.com/sai-kung/ocean-point/",
        "pic_link": "https://i1.wp.com/follo3me.com/wp-content/uploads/2020/01/oceanpoint.jpg?resize=1180%2C435&ssl=1"
    },
    {
        "name": "海下灣 Hoi Ha Wan",
        "page_link": "https://follo3me.com/sai-kung/hoi-ha-wan/",
        "pic_link": "https://i0.wp.com/follo3me.com/wp-content/uploads/2020/01/hoihawan.jpg?resize=1180%2C435&ssl=1"
    },
    {
        "name": "鹿赤走廊 Luk Wu-Chek Keng Path (吊鐘花)",
        "page_link": "https://follo3me.com/sai-kung/luk-chek-path/",
        "pic_link": "https://i0.wp.com/follo3me.com/wp-content/uploads/2020/01/cheklukpath.jpg?resize=1180%2C435&ssl=1"
    },
    {
        "name": "蠄蟝石頂 Kam Kui Shek Teng (吊鐘花)",
        "page_link": "https://follo3me.com/sai-kung/kam-kui-shek-teng/",
        "pic_link": "https://i2.wp.com/follo3me.com/wp-content/uploads/2020/01/kamkuishekteng2.jpg?resize=1180%2C435&ssl=1"
    },
    {
        "name": "曝罟灣 Po Kwu Wan",
        "page_link": "https://follo3me.com/sai-kung/po-kwu-wan/",
        "pic_link": "https://i2.wp.com/follo3me.com/wp-content/uploads/2020/03/pokwuwan.jpg?resize=1180%2C435&ssl=1"
    },
    {
        "name": "白虎山 Pak Fu Shan",
        "page_link": "https://follo3me.com/sai-kung/pak-fu-shan/",
        "pic_link": "https://i0.wp.com/follo3me.com/wp-content/uploads/2020/01/pakfushan.jpg?resize=1180%2C435&ssl=1"
    },
    {
        "name": "黃牛石城 West Buffalo Stone Castle",
        "page_link": "https://follo3me.com/sai-kung/west-buffalo-stone-castle/",
        "pic_link": "https://i0.wp.com/follo3me.com/wp-content/uploads/2020/01/westbuffalostone.jpg?resize=1180%2C435&ssl=1"
    },
    {
        "name": "蚺蛇尖 (北脊) Sharp Peak (North Ridge)",
        "page_link": "https://follo3me.com/sai-kung/sharp-peak-north/",
        "pic_link": "https://i2.wp.com/follo3me.com/wp-content/uploads/2020/01/sharppeaknorth.jpg?resize=1180%2C435&ssl=1"
    },
    {
        "name": "東洋山 (芒草) Tung Yeung Shan",
        "page_link": "https://follo3me.com/sai-kung/tung-yeung-shan/",
        "pic_link": "https://i2.wp.com/follo3me.com/wp-content/uploads/2020/01/tungyeungshan.jpg?resize=1180%2C435&ssl=1"
    },
    {
        "name": "雙鹿石澗 (四疊潭) Sheung Luk’s Four Pools",
        "page_link": "https://follo3me.com/sai-kung/sheung-luks-four-pools/",
        "pic_link": "https://i2.wp.com/follo3me.com/wp-content/uploads/2020/01/fourpools.jpg?resize=1180%2C435&ssl=1"
    },
    {
        "name": "大灣｜東灣 Tai Wan｜Tung Wan",
        "page_link": "https://follo3me.com/sai-kung/tai-wan-tung-wan/",
        "pic_link": "https://i0.wp.com/follo3me.com/wp-content/uploads/2020/01/taiwan.jpg?resize=1180%2C435&ssl=1"
    },
    {
        "name": "浪茄灣 Long Ke Wan",
        "page_link": "https://follo3me.com/sai-kung/long-ke-wan/",
        "pic_link": "https://i2.wp.com/follo3me.com/wp-content/uploads/2020/01/longkewan.jpg?resize=1180%2C435&ssl=1"
    },
    {
        "name": "小破邊 Siu Po Pin",
        "page_link": "https://follo3me.com/sai-kung/siu-po-pin/",
        "pic_link": "https://i2.wp.com/follo3me.com/wp-content/uploads/2020/01/siuopopin.jpg?resize=1180%2C435&ssl=1"
    },
    {
        "name": "白水碗 Pak Shui Wun",
        "page_link": "https://follo3me.com/sai-kung/pak-shui-wun/",
        "pic_link": "https://i0.wp.com/follo3me.com/wp-content/uploads/2020/01/pakshuiwun.jpg?resize=1180%2C435&ssl=1"
    },
    {
        "name": "太墩 Tai Tun",
        "page_link": "https://follo3me.com/sai-kung/tai-tun/",
        "pic_link": "https://i1.wp.com/follo3me.com/wp-content/uploads/2020/06/taitun2.jpg?resize=1180%2C435&ssl=1"
    },
    {
        "name": "麻南笏｜白馬咀 Ma Nam Wat｜Pak Ma Tsui",
        "page_link": "https://follo3me.com/sai-kung/ma-lam-wat/",
        "pic_link": "https://i0.wp.com/follo3me.com/wp-content/uploads/2020/01/manamwat.jpg?resize=1180%2C435&ssl=1"
    },
    {
        "name": "馬鞍山 Ma On Shan",
        "page_link": "https://follo3me.com/sai-kung/ma-on-shan/",
        "pic_link": "https://i1.wp.com/follo3me.com/wp-content/uploads/2020/03/maonshan.jpg?resize=1180%2C435&ssl=1"
    },
    {
        "name": "起子灣 Hei Tsz Wan",
        "page_link": "https://follo3me.com/sai-kung/hei-tsz-wan/",
        "pic_link": "https://i1.wp.com/follo3me.com/wp-content/uploads/2020/01/heitszwan.jpg?resize=1180%2C435&ssl=1"
    },
    {
        "name": "浪茄仔 Long Ke Tsai",
        "page_link": "https://follo3me.com/sai-kung/long-ke-tsai/",
        "pic_link": "https://i0.wp.com/follo3me.com/wp-content/uploads/2020/01/longketsai.jpg?resize=1180%2C435&ssl=1"
    },
    {
        "name": "大枕蓋 Tai Cham Koi",
        "page_link": "https://follo3me.com/sai-kung/tai-cham-koi/",
        "pic_link": "https://i0.wp.com/follo3me.com/wp-content/uploads/2020/01/taichamkoi.jpg?resize=1180%2C435&ssl=1"
    },
    {
        "name": "鹿巢石林 Luk Chau Stone Bushland",
        "page_link": "https://follo3me.com/sai-kung/luk-chau-stone-bushland/",
        "pic_link": "https://i1.wp.com/follo3me.com/wp-content/uploads/2020/01/lukchaustone.jpg?resize=1180%2C435&ssl=1"
    },
    {
        "name": "女婆山 Nui Po Shan",
        "page_link": "https://follo3me.com/sai-kung/nui-po-shan/",
        "pic_link": "https://i1.wp.com/follo3me.com/wp-content/uploads/2020/01/nuiposhan.jpg?resize=1180%2C435&ssl=1"
    },
    {
        "name": "石芽山 Shek Nga Shan",
        "page_link": "https://follo3me.com/sai-kung/shek-nga-shan/",
        "pic_link": "https://i0.wp.com/follo3me.com/wp-content/uploads/2020/01/shekngashan.jpg?resize=1180%2C435&ssl=1"
    },
    {
        "name": "黃牛山 (芒草) West Buffalo Hill",
        "page_link": "https://follo3me.com/sai-kung/west-buffalo-hill2/",
        "pic_link": "https://i1.wp.com/follo3me.com/wp-content/uploads/2020/02/westbuffalo1.jpg?resize=1180%2C435&ssl=1"
    },
    {
        "name": "東洋山 Tung Yeung Shan",
        "page_link": "https://follo3me.com/sai-kung/tung-yeung-shan2/",
        "pic_link": "https://i0.wp.com/follo3me.com/wp-content/uploads/2020/03/tungyeungshan2.jpg?resize=1180%2C435&ssl=1"
    },
    {
        "name": "田下山 Tin Ha Shan",
        "page_link": "https://follo3me.com/sai-kung/tin-ha-shan/",
        "pic_link": "https://i1.wp.com/follo3me.com/wp-content/uploads/2020/02/tinhashan.jpg?resize=1180%2C435&ssl=1"
    },
    {
        "name": "蛇石坳 She Shek Au",
        "page_link": "https://follo3me.com/sai-kung/she-shek-au/",
        "pic_link": "https://i1.wp.com/follo3me.com/wp-content/uploads/2020/02/sheshekau.jpg?resize=1180%2C435&ssl=1"
    },
    {
        "name": "深涌 Sham Chung",
        "page_link": "https://follo3me.com/sai-kung/sham-chung/",
        "pic_link": "https://i2.wp.com/follo3me.com/wp-content/uploads/2020/02/shamchung.jpg?resize=1180%2C435&ssl=1"
    },
    {
        "name": "黃牛山｜水牛山 West Buffalo Hill｜Buffalo Hill",
        "page_link": "https://follo3me.com/sai-kung/buffalo-hill/",
        "pic_link": "https://i1.wp.com/follo3me.com/wp-content/uploads/2020/03/buffalohill.jpg?resize=1180%2C435&ssl=1"
    },
    {
        "name": "白腊灣｜木棉洞 Pak Lap Wan｜Mok Min Cave",
        "page_link": "https://follo3me.com/sai-kung/pak-lap-wan/",
        "pic_link": "https://i0.wp.com/follo3me.com/wp-content/uploads/2020/02/mokmincave.jpg?resize=1180%2C435&ssl=1"
    },
    {
        "name": "破邊洲 Po Pin Chau",
        "page_link": "https://follo3me.com/sai-kung/po-pin-chau/",
        "pic_link": "https://i2.wp.com/follo3me.com/wp-content/uploads/2020/02/popinchau.jpg?resize=1180%2C435&ssl=1"
    },
    {
        "name": "鹿湖郊遊徑 Luk Wu Country Trail",
        "page_link": "https://follo3me.com/sai-kung/luk-wu/",
        "pic_link": "https://i1.wp.com/follo3me.com/wp-content/uploads/2020/02/lukwucountry.jpg?resize=1180%2C435&ssl=1"
    },
    {
        "name": "白沙灣 Hebe Haven",
        "page_link": "https://follo3me.com/sai-kung/hebe-haven/",
        "pic_link": "https://i1.wp.com/follo3me.com/wp-content/uploads/2020/03/hebehaven.jpg?resize=1180%2C435&ssl=1"
    },
    {
        "name": "布袋澳 Po Toi O",
        "page_link": "https://follo3me.com/sai-kung/po-toi-o/",
        "pic_link": "https://i0.wp.com/follo3me.com/wp-content/uploads/2020/03/potoio.jpg?resize=1180%2C435&ssl=1"
    },
    {
        "name": "大浪西灣 Tai Long Sai Wan",
        "page_link": "https://follo3me.com/sai-kung/sai-wan/",
        "pic_link": "https://i1.wp.com/follo3me.com/wp-content/uploads/2020/03/tailongsaiwan.jpg?resize=1180%2C435&ssl=1"
    },
    {
        "name": "鹹田灣 Ham Tin Wan",
        "page_link": "https://follo3me.com/sai-kung/ham-tin-wan/",
        "pic_link": "https://i1.wp.com/follo3me.com/wp-content/uploads/2020/03/hamtinwan.jpg?resize=1180%2C435&ssl=1"
    },
    {
        "name": "睇魚岩頂 Tai Yue Ngam Teng",
        "page_link": "https://follo3me.com/sai-kung/tynt/",
        "pic_link": "https://i2.wp.com/follo3me.com/wp-content/uploads/2020/01/taeiyuengamteng.jpg?resize=1180%2C435&ssl=1"
    },
    {
        "name": "釣魚翁 High Junk Peak",
        "page_link": "https://follo3me.com/sai-kung/high-junk-peak/",
        "pic_link": "https://i0.wp.com/follo3me.com/wp-content/uploads/2020/03/highjunkpeak.jpg?resize=1180%2C435&ssl=1"
    },
    {
        "name": "蚺蛇灣 Nam She Wan",
        "page_link": "https://follo3me.com/sai-kung/nam-she-wan/",
        "pic_link": "https://i0.wp.com/follo3me.com/wp-content/uploads/2020/03/namshewan.jpg?resize=1180%2C435&ssl=1"
    },
    {
        "name": "龍蝦灣 Lung Ha Wan",
        "page_link": "https://follo3me.com/sai-kung/lung-ha-wan/",
        "pic_link": "https://i0.wp.com/follo3me.com/wp-content/uploads/2019/12/lunghawan.jpg?resize=1180%2C435&ssl=1"
    },
    {
        "name": "大坑墩 Tai Hang Tun",
        "page_link": "https://follo3me.com/sai-kung/tai-hang-tum/",
        "pic_link": "https://i0.wp.com/follo3me.com/wp-content/uploads/2020/02/taihangtun.jpg?resize=1180%2C435&ssl=1"
    },
    {
        "name": "蚺蛇尖｜米粉頂 Sharp Peak｜Mai Fan Teng",
        "page_link": "https://follo3me.com/sai-kung/sharp-peak/",
        "pic_link": "https://i1.wp.com/follo3me.com/wp-content/uploads/2019/12/sharppeak.jpg?resize=1180%2C435&ssl=1"
    },
    {
        "name": "萬宜水庫東壩 High Island (East Dam)",
        "page_link": "https://follo3me.com/sai-kung/high-island-east/",
        "pic_link": "https://i0.wp.com/follo3me.com/wp-content/uploads/2020/03/highislandreservoir.jpg?resize=1180%2C435&ssl=1"
    },
    {
        "name": "萬宜水庫西壩 High Island (West Dam)",
        "page_link": "https://follo3me.com/sai-kung/high-island-reservoir-west-dam/",
        "pic_link": "https://i0.wp.com/follo3me.com/wp-content/uploads/2020/03/highislandwest.jpg?resize=1180%2C435&ssl=1"
    },
    {
        "name": "蚺蛇尖 Sharp Peak",
        "page_link": "https://follo3me.com/sai-kung/sharp-peak2/",
        "pic_link": "https://i1.wp.com/follo3me.com/wp-content/uploads/2020/05/sharppeak2.jpg?resize=1180%2C435&ssl=1"
    },
    {
        "name": "大金鐘 Pyramid Hill",
        "page_link": "https://follo3me.com/sai-kung/pyramid-hill/",
        "pic_link": "https://i1.wp.com/follo3me.com/wp-content/uploads/2020/07/pyramidhill1.jpg?resize=1180%2C435&ssl=1"
    },
    {
        "name": "昂平高原 Ngong Ping Plateau",
        "page_link": "https://follo3me.com/sai-kung/ngong-ping-plateau/",
        "pic_link": "https://i2.wp.com/follo3me.com/wp-content/uploads/2019/12/ngongpingp.jpg?resize=1180%2C435&ssl=1"
    },
    {
        "name": "薄刀屻｜婆髻山 Pok To Yan｜Por Kai Shan",
        "page_link": "https://follo3me.com/lantau-island/pty-pks/",
        "pic_link": "https://i1.wp.com/follo3me.com/wp-content/uploads/2020/12/poktoyan.jpg?resize=1180%2C435&ssl=1"
    },
    {
        "name": "彌勒山 Nei Lak Shan",
        "page_link": "https://follo3me.com/lantau-island/nei-lak-shan/",
        "pic_link": "https://i1.wp.com/follo3me.com/wp-content/uploads/2020/10/neilakshan.jpg?resize=1180%2C435&ssl=1"
    },
    {
        "name": "愉景灣水塘 Discovery Bay Reservoir",
        "page_link": "https://follo3me.com/lantau-island/discovery-bay-reservoir/",
        "pic_link": "https://i1.wp.com/follo3me.com/wp-content/uploads/2020/10/discoverybayreservoir.jpg?resize=1180%2C435&ssl=1"
    },
    {
        "name": "觀音山｜羗山 Kwun Yam Shan｜Keung Shan",
        "page_link": "https://follo3me.com/lantau-island/kwun-yam-keung-shan/",
        "pic_link": "https://i2.wp.com/follo3me.com/wp-content/uploads/2020/10/kwunyamshan-keungshan.jpg?resize=1180%2C435&ssl=1"
    },
    {
        "name": "鳳東飛流 East Phoenix Stream",
        "page_link": "https://follo3me.com/lantau-island/east-phoenix-stream/",
        "pic_link": "https://i0.wp.com/follo3me.com/wp-content/uploads/2020/07/eastphoenix.jpg?resize=1180%2C435&ssl=1"
    },
    {
        "name": "石獅山 Shek Sze Shan",
        "page_link": "https://follo3me.com/lantau-island/shek-sze-shan/",
        "pic_link": "https://i1.wp.com/follo3me.com/wp-content/uploads/2020/02/shekszeshan.jpg?resize=1180%2C435&ssl=1"
    },
    {
        "name": "獅山｜象山 Sze Shan｜Cheung Shan",
        "page_link": "https://follo3me.com/lantau-island/sze-cheung-shan/",
        "pic_link": "https://i0.wp.com/follo3me.com/wp-content/uploads/2020/01/szeshan-cheungshan.jpg?resize=1180%2C435&ssl=1"
    },
    {
        "name": "鳳凰山 (芒草) Lantau Peak",
        "page_link": "https://follo3me.com/lantau-island/lantau-peak-2/",
        "pic_link": "https://i1.wp.com/follo3me.com/wp-content/uploads/2019/12/lantaupeak2.jpg?resize=1180%2C435&ssl=1"
    },
    {
        "name": "長索 Cheung Sok",
        "page_link": "https://follo3me.com/lantau-island/cheung-sok/",
        "pic_link": "https://i2.wp.com/follo3me.com/wp-content/uploads/2019/12/cheungsok.jpg?resize=1180%2C435&ssl=1"
    },
    {
        "name": "爛頭營 (天池) Lantau Mountain Camp",
        "page_link": "https://follo3me.com/lantau-island/lantau-mountain-camp/",
        "pic_link": "https://i1.wp.com/follo3me.com/wp-content/uploads/2019/11/lantaucamp.jpg?resize=1180%2C435&ssl=1"
    },
    {
        "name": "沙螺灣 Sha Lo Wan",
        "page_link": "https://follo3me.com/lantau-island/sha-lo-wan/",
        "pic_link": "https://i0.wp.com/follo3me.com/wp-content/uploads/2020/01/shalowan.jpg?resize=1180%2C435&ssl=1"
    },
    {
        "name": "北龍石澗 (天書壁) Pak Lung Stream",
        "page_link": "https://follo3me.com/lantau-island/pak-lung-stream/",
        "pic_link": "https://i0.wp.com/follo3me.com/wp-content/uploads/2020/01/paklung.jpg?resize=1180%2C435&ssl=1"
    },
    {
        "name": "水口灣 Shui Hau Wan",
        "page_link": "https://follo3me.com/lantau-island/shui-hau-wan/",
        "pic_link": "https://i1.wp.com/follo3me.com/wp-content/uploads/2020/01/Shui-Hau-Wan.jpg?resize=1180%2C435&ssl=1"
    },
    {
        "name": "鳳冠南巖 South Phoenix Trail",
        "page_link": "https://follo3me.com/lantau-island/south-phoenix-trail/",
        "pic_link": "https://i1.wp.com/follo3me.com/wp-content/uploads/2020/01/South-Phoenix-Trail.jpg?resize=1180%2C435&ssl=1"
    },
    {
        "name": "羅漢塔｜南天門 Law Hon Tap｜South Heaven Gate",
        "page_link": "https://follo3me.com/lantau-island/law-hon-tap/",
        "pic_link": "https://i1.wp.com/follo3me.com/wp-content/uploads/2020/01/lawhongtap.jpg?resize=1180%2C435&ssl=1"
    },
    {
        "name": "北天門 (天門棧道) North Heaven Gate",
        "page_link": "https://follo3me.com/lantau-island/north-heaven-gate/",
        "pic_link": "https://i0.wp.com/follo3me.com/wp-content/uploads/2020/01/North-Heaven-Gate.jpg?resize=1180%2C435&ssl=1"
    },
    {
        "name": "芝麻灣石林 Chi Ma Wan Boulder Field",
        "page_link": "https://follo3me.com/lantau-island/chi-ma-wan-boulder-field/",
        "pic_link": "https://i0.wp.com/follo3me.com/wp-content/uploads/2020/01/Chi-Ma-Wan-Boulder.jpg?resize=1180%2C435&ssl=1"
    },
    {
        "name": "分流 Fan Lau",
        "page_link": "https://follo3me.com/lantau-island/fan-lau/",
        "pic_link": "https://i0.wp.com/follo3me.com/wp-content/uploads/2020/01/fanlau.jpg?resize=1180%2C435&ssl=1"
    },
    {
        "name": "煎魚灣｜雞翼角 Tsin Yue Wan｜Peaked Hill",
        "page_link": "https://follo3me.com/lantau-island/tsin-yue-wan/",
        "pic_link": "https://i1.wp.com/follo3me.com/wp-content/uploads/2020/01/tsinyuewan.jpg?resize=1180%2C435&ssl=1"
    },
    {
        "name": "石壁郊遊徑 Shek Pik Country Trail",
        "page_link": "https://follo3me.com/lantau-island/shek-pik-country-trail/",
        "pic_link": "https://i2.wp.com/follo3me.com/wp-content/uploads/2020/01/shekpikcountry.jpg?resize=1180%2C435&ssl=1"
    },
    {
        "name": "西狗牙嶺 Kau Nga Ling (West Ridge)",
        "page_link": "https://follo3me.com/lantau-island/kau-nga-ling-west/",
        "pic_link": "https://i2.wp.com/follo3me.com/wp-content/uploads/2020/01/kaungalingwest.jpg?resize=1180%2C435&ssl=1"
    },
    {
        "name": "二東山 Yi Tung Shan",
        "page_link": "https://follo3me.com/lantau-island/yi-tung-shan/",
        "pic_link": "https://i0.wp.com/follo3me.com/wp-content/uploads/2019/12/Yitungshan.jpg?resize=1180%2C435&ssl=1"
    },
    {
        "name": "陰澳灣 Yam O Wan",
        "page_link": "https://follo3me.com/lantau-island/yam-o-wan/",
        "pic_link": "https://i1.wp.com/follo3me.com/wp-content/uploads/2020/03/yamowan.jpg?resize=1180%2C435&ssl=1"
    },
    {
        "name": "萬丈布 (天池) Man Cheung Po’s Infinity Pool",
        "page_link": "https://follo3me.com/lantau-island/infinity-pool/",
        "pic_link": "https://i2.wp.com/follo3me.com/wp-content/uploads/2020/02/mancheungpo.jpg?resize=1180%2C435&ssl=1"
    },
    {
        "name": "大東山 Sunset Peak",
        "page_link": "https://follo3me.com/lantau-island/sunset-peak/",
        "pic_link": "https://i0.wp.com/follo3me.com/wp-content/uploads/2019/12/sunsetpeak.jpg?resize=1180%2C435&ssl=1"
    },
    {
        "name": "石壁水塘 Shek Pik Reservoir",
        "page_link": "https://follo3me.com/lantau-island/shek-pik-reservoir/",
        "pic_link": "https://i0.wp.com/follo3me.com/wp-content/uploads/2020/01/shekpikreservoir.jpg?resize=1180%2C435&ssl=1"
    },
    {
        "name": "大澳 Tai O",
        "page_link": "https://follo3me.com/lantau-island/tai-o/",
        "pic_link": "https://i2.wp.com/follo3me.com/wp-content/uploads/2020/02/taio.jpg?resize=1180%2C435&ssl=1"
    },
    {
        "name": "昂坪棧道 Ngong Ping Trail",
        "page_link": "https://follo3me.com/lantau-island/ngong-ping-trail/",
        "pic_link": "https://i0.wp.com/follo3me.com/wp-content/uploads/2020/02/ngongpingtrail.jpg?resize=1180%2C435&ssl=1"
    },
    {
        "name": "東梅古道 Tung Mui Ancient Trail",
        "page_link": "https://follo3me.com/lantau-island/tung-mui-ancient/",
        "pic_link": "https://i2.wp.com/follo3me.com/wp-content/uploads/2020/02/tungmui.jpg?resize=1180%2C435&ssl=1"
    },
    {
        "name": "昂坪 Ngong Ping",
        "page_link": "https://follo3me.com/lantau-island/ngong-ping/",
        "pic_link": "https://i0.wp.com/follo3me.com/wp-content/uploads/2019/12/ngongping.jpg?resize=1180%2C435&ssl=1"
    },
    {
        "name": "禾徑山 Wo Keng Shan",
        "page_link": "https://follo3me.com/nent/wo-keng-shan/",
        "pic_link": "https://i1.wp.com/follo3me.com/wp-content/uploads/2021/01/wokengshan.jpg?resize=1180%2C435&ssl=1"
    },
    {
        "name": "烏洲塘 Wu Chau Tong",
        "page_link": "https://follo3me.com/nent/wu-chau-tong/",
        "pic_link": "https://i2.wp.com/follo3me.com/wp-content/uploads/2020/04/wuchautong.jpg?resize=1180%2C435&ssl=1"
    },
    {
        "name": "紅花寨 Hung Fa Chai",
        "page_link": "https://follo3me.com/nent/hung-fa-chai/",
        "pic_link": "https://i2.wp.com/follo3me.com/wp-content/uploads/2020/03/hungfachai-1.jpg?resize=1180%2C435&ssl=1"
    },
    {
        "name": "龍山 Lung Shan",
        "page_link": "https://follo3me.com/nent/lung-shan/",
        "pic_link": "https://i0.wp.com/follo3me.com/wp-content/uploads/2019/12/lungshan.jpg?resize=1180%2C435&ssl=1"
    },
    {
        "name": "黃竹角咀 Wong Chuk Kok Tsui",
        "page_link": "https://follo3me.com/nent/wong-chuk-kok-tsui/",
        "pic_link": "https://i1.wp.com/follo3me.com/wp-content/uploads/2020/01/wongchukkoktsui.jpg?resize=1180%2C435&ssl=1"
    },
    {
        "name": "鳳坑 Fung Hang (蘆葦)",
        "page_link": "https://follo3me.com/nent/fung-hang/",
        "pic_link": "https://i2.wp.com/follo3me.com/wp-content/uploads/2020/01/funghang.jpg?resize=1180%2C435&ssl=1"
    },
    {
        "name": "吊燈籠｜芬箕托 Tiu Tang Lung｜Fan Kei Tok",
        "page_link": "https://follo3me.com/nent/fan-kei-tok/",
        "pic_link": "https://i2.wp.com/follo3me.com/wp-content/uploads/2020/01/Tiu-Tang-Lung-Fan-Kei-Tok.jpg?resize=1180%2C435&ssl=1"
    },
    {
        "name": "蓮麻坑｜紅花嶺 Lin Ma Hang｜Robin’s Nest",
        "page_link": "https://follo3me.com/nent/lmh-robins-nest/",
        "pic_link": "https://i0.wp.com/follo3me.com/wp-content/uploads/2020/01/linmahang.jpg?resize=1180%2C435&ssl=1"
    },
    {
        "name": "鎖羅盤 So Lo Pun",
        "page_link": "https://follo3me.com/nent/so-lo-pun/",
        "pic_link": "https://i0.wp.com/follo3me.com/wp-content/uploads/2020/01/solopun.jpg?resize=1180%2C435&ssl=1"
    },
    {
        "name": "橫七古道 Wang Tsat Ancient Trail",
        "page_link": "https://follo3me.com/nent/wang-tsat-ancient-trail/",
        "pic_link": "https://i0.wp.com/follo3me.com/wp-content/uploads/2020/01/wangtsat.jpg?resize=1180%2C435&ssl=1"
    },
    {
        "name": "九龍坑山 Cloudy Hill",
        "page_link": "https://follo3me.com/nent/cloudy-hill/",
        "pic_link": "https://i2.wp.com/follo3me.com/wp-content/uploads/2020/01/cloudyhill.jpg?resize=1180%2C435&ssl=1"
    },
    {
        "name": "流水響 Lau Shui Heung (落羽松)",
        "page_link": "https://follo3me.com/nent/lau-shui-heung2/",
        "pic_link": "https://i1.wp.com/follo3me.com/wp-content/uploads/2019/12/laushuiheung22.jpg?resize=1180%2C435&ssl=1"
    },
    {
        "name": "紅石門 Hung Shek Mun",
        "page_link": "https://follo3me.com/nent/hung-shek-mun/",
        "pic_link": "https://i2.wp.com/follo3me.com/wp-content/uploads/2020/04/hungshekmun2.jpg?resize=1180%2C435&ssl=1"
    },
    {
        "name": "谷埔 Kuk Po (蘆葦)",
        "page_link": "https://follo3me.com/nent/kuk-po/",
        "pic_link": "https://i2.wp.com/follo3me.com/wp-content/uploads/2020/02/kukpo.jpg?resize=1180%2C435&ssl=1"
    },
    {
        "name": "長牌墩 Cheung Pai Tun",
        "page_link": "https://follo3me.com/nent/cheung-pai-tun/",
        "pic_link": "https://i1.wp.com/follo3me.com/wp-content/uploads/2020/07/cheungpaitun1.jpg?resize=1180%2C435&ssl=1"
    },
    {
        "name": "石板潭 (嘉龍潭) Ka Lung Pool",
        "page_link": "https://follo3me.com/nent/ka-lung-pool/",
        "pic_link": "https://i0.wp.com/follo3me.com/wp-content/uploads/2020/02/kalungpool.jpg?resize=1180%2C435&ssl=1"
    },
    {
        "name": "鶴藪水塘 Hok Tau Reservoir",
        "page_link": "https://follo3me.com/nent/hok-tau-reservoir/",
        "pic_link": "https://i1.wp.com/follo3me.com/wp-content/uploads/2020/02/hoktaureservoir.jpg?resize=1180%2C435&ssl=1"
    },
    {
        "name": "流水響 Lau Shui Heung",
        "page_link": "https://follo3me.com/nent/lau-shui-heung/",
        "pic_link": "https://i2.wp.com/follo3me.com/wp-content/uploads/2020/02/laushuheung.jpg?resize=1180%2C435&ssl=1"
    },
    {
        "name": "荔枝窩 Lai Chi Wo",
        "page_link": "https://follo3me.com/nent/lai-chi-wo/",
        "pic_link": "https://i2.wp.com/follo3me.com/wp-content/uploads/2020/02/laichiwo.jpg?resize=1180%2C435&ssl=1"
    },
    {
        "name": "八仙嶺 Pat Sin Leng",
        "page_link": "https://follo3me.com/nent/pat-sin-leng/",
        "pic_link": "https://i2.wp.com/follo3me.com/wp-content/uploads/2020/02/patsinleng.jpg?resize=1180%2C435&ssl=1"
    },
    {
        "name": "三椏灣 Sam A Wan",
        "page_link": "https://follo3me.com/nent/sam-a-wan/",
        "pic_link": "https://i2.wp.com/follo3me.com/wp-content/uploads/2020/02/samawan.jpg?resize=1180%2C435&ssl=1"
    },
    {
        "name": "吊燈籠 Tiu Tang Lung",
        "page_link": "https://follo3me.com/nent/tiu-tang-lung/",
        "pic_link": "https://i1.wp.com/follo3me.com/wp-content/uploads/2020/02/tiutanglung.jpg?resize=1180%2C435&ssl=1"
    },
    {
        "name": "烏蛟騰 Wu Kau Tang",
        "page_link": "https://follo3me.com/nent/wu-kau-tang/",
        "pic_link": "https://i0.wp.com/follo3me.com/wp-content/uploads/2020/02/wukautang.jpg?resize=1180%2C435&ssl=1"
    },
    {
        "name": "新娘潭 Bride’s Pool",
        "page_link": "https://follo3me.com/nent/brides-pool/",
        "pic_link": "https://i1.wp.com/follo3me.com/wp-content/uploads/2015/09/b001-11.jpg?resize=1180%2C435&ssl=1"
    },
    {
        "name": "麒麟山 Ki Lun Shan",
        "page_link": "https://follo3me.com/nwnt/ki-lun-shan/",
        "pic_link": "https://i2.wp.com/follo3me.com/wp-content/uploads/2020/11/kilunshan.jpg?resize=1180%2C435&ssl=1"
    },
    {
        "name": "古洞水塘 Kwu Tung Reservoir",
        "page_link": "https://follo3me.com/nwnt/kwu-tung-reservoir/",
        "pic_link": "https://i2.wp.com/follo3me.com/wp-content/uploads/2020/11/kwutungreservoir.jpg?resize=1180%2C435&ssl=1"
    },
    {
        "name": "洪水坑水塘 Hung Shui Hang Reservoir",
        "page_link": "https://follo3me.com/nwnt/hung-shui-hang/",
        "pic_link": "https://i1.wp.com/follo3me.com/wp-content/uploads/2020/09/hungshuihang.jpg?resize=1180%2C435&ssl=1"
    },
    {
        "name": "牛潭山 Ngau Tam Shan",
        "page_link": "https://follo3me.com/nwnt/ngau-tam-shan/",
        "pic_link": "https://i2.wp.com/follo3me.com/wp-content/uploads/2020/05/ngautamshan.jpg?resize=1180%2C435&ssl=1"
    },
    {
        "name": "黃泥墩水塘 Wong Nai Tun Irrigation Reservoir",
        "page_link": "https://follo3me.com/nwnt/wong-nai-tun/",
        "pic_link": "https://i0.wp.com/follo3me.com/wp-content/uploads/2020/04/wongnaitun.jpg?resize=1180%2C435&ssl=1"
    },
    {
        "name": "牛牯嶺｜大刀屻 Ngau Kwu Leng｜Tai To Yan",
        "page_link": "https://follo3me.com/nwnt/ngau-kwu-leng/",
        "pic_link": "https://i2.wp.com/follo3me.com/wp-content/uploads/2020/02/ngaukwu-taito.jpg?resize=1180%2C435&ssl=1"
    },
    {
        "name": "屏山文物徑 Ping Shan Heritage Trail",
        "page_link": "https://follo3me.com/nwnt/ping-shan-heritage-trail/",
        "pic_link": "https://i2.wp.com/follo3me.com/wp-content/uploads/2020/01/pingshan.jpg?resize=1180%2C435&ssl=1"
    },
    {
        "name": "千島湖清景台 Reservoir Islands Viewpoint",
        "page_link": "https://follo3me.com/nwnt/reservoir-islands-viewpoint/",
        "pic_link": "https://i0.wp.com/follo3me.com/wp-content/uploads/2019/12/reservoirislands.jpg?resize=1180%2C435&ssl=1"
    },
    {
        "name": "乾白石澗 Kon Pak Stream",
        "page_link": "https://follo3me.com/nwnt/kon-pak-stream/",
        "pic_link": "https://i0.wp.com/follo3me.com/wp-content/uploads/2019/11/konpak.jpg?resize=1180%2C435&ssl=1"
    },
    {
        "name": "石龍坑 Shek Lung Stream",
        "page_link": "https://follo3me.com/nwnt/shek-lung-stream/",
        "pic_link": "https://i2.wp.com/follo3me.com/wp-content/uploads/2019/12/sheklungstream.jpg?resize=1180%2C435&ssl=1"
    },
    {
        "name": "尖鼻咀 (龜山) Tsim Bei Tsui (Kwai Shan)",
        "page_link": "https://follo3me.com/nwnt/tsim-bei-tsui/",
        "pic_link": "https://i2.wp.com/follo3me.com/wp-content/uploads/2020/01/Tsim-Bei-Tsui.jpg?resize=1180%2C435&ssl=1"
    },
    {
        "name": "乾山｜圓頭山 Kon Shan｜Yuen Tau Shan",
        "page_link": "https://follo3me.com/nwnt/kon-shan-yuen-tau-shan/",
        "pic_link": "https://i0.wp.com/follo3me.com/wp-content/uploads/2020/01/kongshan-yuentau.jpg?resize=1180%2C435&ssl=1"
    },
    {
        "name": "桃坑峒 To Hang Tung",
        "page_link": "https://follo3me.com/nwnt/to-hang-tung/",
        "pic_link": "https://i0.wp.com/follo3me.com/wp-content/uploads/2019/12/NORTHWESTNT.jpg?resize=1180%2C435&ssl=1"
    },
    {
        "name": "花香爐頂 Fa Heung Lo Teng",
        "page_link": "https://follo3me.com/nwnt/fa-heung-lo-teng/",
        "pic_link": "https://i2.wp.com/follo3me.com/wp-content/uploads/2020/01/heungfaloteng.jpg?resize=1180%2C435&ssl=1"
    },
    {
        "name": "甲龍古道 Kap Lung Ancient Trail",
        "page_link": "https://follo3me.com/nwnt/kap-lung-ancient-trail/",
        "pic_link": "https://i0.wp.com/follo3me.com/wp-content/uploads/2020/01/kaplung.jpg?resize=1180%2C435&ssl=1"
    },
    {
        "name": "青山 Castle Peak",
        "page_link": "https://follo3me.com/nwnt/castle-peak/",
        "pic_link": "https://i2.wp.com/follo3me.com/wp-content/uploads/2020/01/castlepeak.jpg?resize=1180%2C435&ssl=1"
    },
    {
        "name": "千島‧九逕 Thousand and Nine Trail",
        "page_link": "https://follo3me.com/nwnt/thousand-and-nine-trail/",
        "pic_link": "https://i2.wp.com/follo3me.com/wp-content/uploads/2020/01/thousandandnine.jpg?resize=1180%2C435&ssl=1"
    },
    {
        "name": "大欖涌千島湖 Thousand Islands",
        "page_link": "https://follo3me.com/nwnt/the-thousand-island/",
        "pic_link": "https://i0.wp.com/follo3me.com/wp-content/uploads/2020/01/tailamchungreservoir.jpg?resize=1180%2C435&ssl=1"
    },
    {
        "name": "九逕山 Kau Keng Shan",
        "page_link": "https://follo3me.com/nwnt/kau-keng-shan/",
        "pic_link": "https://i1.wp.com/follo3me.com/wp-content/uploads/2020/01/kaukengshan.jpg?resize=1180%2C435&ssl=1"
    },
    {
        "name": "藍地水塘 Lam Tei Reservoir",
        "page_link": "https://follo3me.com/nwnt/lam-tei-reservoir/",
        "pic_link": "https://i1.wp.com/follo3me.com/wp-content/uploads/2020/01/lamteireservoir.jpg?resize=1180%2C435&ssl=1"
    },
    {
        "name": "石龍拱 Shek Lung Kung",
        "page_link": "https://follo3me.com/nwnt/shek-lung-kung/",
        "pic_link": "https://i2.wp.com/follo3me.com/wp-content/uploads/2020/02/sheklungkung.jpg?resize=1180%2C435&ssl=1"
    },
    {
        "name": "蛇嶺 She Leng",
        "page_link": "https://follo3me.com/nwnt/she-leng/",
        "pic_link": "https://i0.wp.com/follo3me.com/wp-content/uploads/2020/02/sheleng.jpg?resize=1180%2C435&ssl=1"
    },
    {
        "name": "髻山 Kai Shan",
        "page_link": "https://follo3me.com/nwnt/kai-shan/",
        "pic_link": "https://i2.wp.com/follo3me.com/wp-content/uploads/2020/02/kaishan.jpg?resize=1180%2C435&ssl=1"
    },
    {
        "name": "大石磨 Crest Hill a.k.a. Tai Shek Mo",
        "page_link": "https://follo3me.com/nwnt/crest-hill/",
        "pic_link": "https://i1.wp.com/follo3me.com/wp-content/uploads/2020/02/cresthill.jpg?resize=1180%2C435&ssl=1"
    },
    {
        "name": "良田坳峽谷 (菠蘿山) Leung Tin Au Valley",
        "page_link": "https://follo3me.com/nwnt/por-lo-shan/",
        "pic_link": "https://i0.wp.com/follo3me.com/wp-content/uploads/2020/02/leungtinau.jpg?resize=1180%2C435&ssl=1"
    },
    {
        "name": "大生圍 Tai Sang Wai",
        "page_link": "https://follo3me.com/nwnt/tai-sang-wai/",
        "pic_link": "https://i2.wp.com/follo3me.com/wp-content/uploads/2020/02/taisangwai.jpg?resize=1180%2C435&ssl=1"
    },
    {
        "name": "大刀屻 Tai To Yan",
        "page_link": "https://follo3me.com/nwnt/tai-to-yan/",
        "pic_link": "https://i2.wp.com/follo3me.com/wp-content/uploads/2020/02/taitoyan.jpg?resize=1180%2C435&ssl=1"
    },
    {
        "name": "南生圍 Nam Sang Wai",
        "page_link": "https://follo3me.com/nwnt/nam-sang-wai/",
        "pic_link": "https://i0.wp.com/follo3me.com/wp-content/uploads/2019/12/namsangwai.jpg?resize=1180%2C435&ssl=1"
    },
    {
        "name": "大棠楓香林 Tai Tong Sweet Gum Woods",
        "page_link": "https://follo3me.com/nwnt/tai-tong/",
        "pic_link": "https://i2.wp.com/follo3me.com/wp-content/uploads/2019/12/taitongsweetgum.jpg?resize=1180%2C435&ssl=1"
    },
    {
        "name": "馬草壟 Ma Tso Lung",
        "page_link": "https://follo3me.com/nwnt/ma-tso-lung/",
        "pic_link": "https://i0.wp.com/follo3me.com/wp-content/uploads/2020/03/matsolung.jpg?resize=1180%2C435&ssl=1"
    },
    {
        "name": "石崗 (木棉) Shek Kong",
        "page_link": "https://follo3me.com/nwnt/shek-kong/",
        "pic_link": "https://i2.wp.com/follo3me.com/wp-content/uploads/2020/01/shekkong.jpg?resize=1180%2C435&ssl=1"
    },
    {
        "name": "下白泥 Ha Pak Nai",
        "page_link": "https://follo3me.com/nwnt/ha-pak-nai/",
        "pic_link": "https://i0.wp.com/follo3me.com/wp-content/uploads/2020/03/hapaknai.jpg?resize=1180%2C435&ssl=1"
    },
    {
        "name": "走馬崗｜燕岩頂 Chau Ma Kong｜Yin Ngam Teng",
        "page_link": "https://follo3me.com/cnt/chau-ma-kong/",
        "pic_link": "https://i1.wp.com/follo3me.com/wp-content/uploads/2019/11/yinngamteng.jpg?resize=1180%2C435&ssl=1"
    },
    {
        "name": "社山 She Shan",
        "page_link": "https://follo3me.com/cnt/she-shan/",
        "pic_link": "https://i1.wp.com/follo3me.com/wp-content/uploads/2020/01/sheshan.jpg?resize=1180%2C435&ssl=1"
    },
    {
        "name": "排頭坑 Pai Tau Hang (吊鐘王)",
        "page_link": "https://follo3me.com/cnt/pai-tau-hang/",
        "pic_link": "https://i2.wp.com/follo3me.com/wp-content/uploads/2020/01/paitauhang.jpg?resize=1180%2C435&ssl=1"
    },
    {
        "name": "孖指徑 (城門戰地遺跡徑) Smuggler’s Ridge (Shing Mun War Relics Trail)",
        "page_link": "https://follo3me.com/cnt/smugglers-ridge/",
        "pic_link": "https://i2.wp.com/follo3me.com/wp-content/uploads/2020/01/Smuggler-Ridge.jpg?resize=1180%2C435&ssl=1"
    },
    {
        "name": "道風山 To Fung Shan",
        "page_link": "https://follo3me.com/cnt/to-fung-shan/",
        "pic_link": "https://i2.wp.com/follo3me.com/wp-content/uploads/2020/01/tofungshan.jpg?resize=1180%2C435&ssl=1"
    },
    {
        "name": "龍門郊遊徑 Lung Mun Country Trail",
        "page_link": "https://follo3me.com/cnt/lung-mun-country-trail/",
        "pic_link": "https://i1.wp.com/follo3me.com/wp-content/uploads/2020/01/lungmun.jpg?resize=1180%2C435&ssl=1"
    },
    {
        "name": "草山 Grassy Hill",
        "page_link": "https://follo3me.com/cnt/grassy-hill/",
        "pic_link": "https://i0.wp.com/follo3me.com/wp-content/uploads/2020/01/grassyhill.jpg?resize=1180%2C435&ssl=1"
    },
    {
        "name": "妙高台 Miu Ko Toi",
        "page_link": "https://follo3me.com/cnt/miu-ko-toi/",
        "pic_link": "https://i0.wp.com/follo3me.com/wp-content/uploads/2020/02/miukotoi.jpg?resize=1180%2C435&ssl=1"
    },
    {
        "name": "禾秧山 Woo Yeung Shan",
        "page_link": "https://follo3me.com/cnt/woo-yeung-shan/",
        "pic_link": "https://i1.wp.com/follo3me.com/wp-content/uploads/2020/02/wooyeungshan.jpg?resize=1180%2C435&ssl=1"
    },
    {
        "name": "相思林徑 Sheung Sze Forest Trail",
        "page_link": "https://follo3me.com/cnt/sheung-sze/",
        "pic_link": "https://i0.wp.com/follo3me.com/wp-content/uploads/2020/02/sheungszeforest.jpg?resize=1180%2C435&ssl=1"
    },
    {
        "name": "大帽山 Tai Mo Shan",
        "page_link": "https://follo3me.com/cnt/tai-mo-shan1/",
        "pic_link": "https://i1.wp.com/follo3me.com/wp-content/uploads/2020/02/taimoshan.jpg?resize=1180%2C435&ssl=1"
    },
    {
        "name": "四方山 Sze Fong Shan",
        "page_link": "https://follo3me.com/cnt/sze-fong-shan/",
        "pic_link": "https://i0.wp.com/follo3me.com/wp-content/uploads/2020/02/szefongshan.jpg?resize=1180%2C435&ssl=1"
    },
    {
        "name": "燕岩 Yin Ngam",
        "page_link": "https://follo3me.com/cnt/yin-ngam/",
        "pic_link": "https://i0.wp.com/follo3me.com/wp-content/uploads/2020/02/yinngam.jpg?resize=1180%2C435&ssl=1"
    },
    {
        "name": "針山 Needle Hill",
        "page_link": "https://follo3me.com/cnt/needle-hill/",
        "pic_link": "https://i2.wp.com/follo3me.com/wp-content/uploads/2020/02/needlehill.jpg?resize=1180%2C435&ssl=1"
    },
    {
        "name": "石梨貝水塘 Shek Lei Pui Reservoir",
        "page_link": "https://follo3me.com/cnt/shek-lei-pui/",
        "pic_link": "https://i2.wp.com/follo3me.com/wp-content/uploads/2020/01/shekleipui.jpg?resize=1180%2C435&ssl=1"
    },
    {
        "name": "九龍水塘 Kowloon Reservoir",
        "page_link": "https://follo3me.com/cnt/kowloon-reservoir/",
        "pic_link": "https://i1.wp.com/follo3me.com/wp-content/uploads/2020/01/kowloonreservoirs.jpg?resize=1180%2C435&ssl=1"
    },
    {
        "name": "青衣回歸紀念徑 Tsing Yi Nature Trail",
        "page_link": "https://follo3me.com/cnt/tsing-yi-trail/",
        "pic_link": "https://i1.wp.com/follo3me.com/wp-content/uploads/2020/02/tsingyinature.jpg?resize=1180%2C435&ssl=1"
    },
    {
        "name": "青衣公園 Tsing Yi Park (落羽松‧水杉‧水松)",
        "page_link": "https://follo3me.com/cnt/tsing-yi-park/",
        "pic_link": "https://i0.wp.com/follo3me.com/wp-content/uploads/2020/03/tsingyipark.jpg?resize=1180%2C435&ssl=1"
    },
    {
        "name": "城門水塘 Shing Mun Reservoir",
        "page_link": "https://follo3me.com/cnt/shing-mun/",
        "pic_link": "https://i0.wp.com/follo3me.com/wp-content/uploads/2020/03/shingmunreservoir.jpg?resize=1180%2C435&ssl=1"
    },
    {
        "name": "下城門水塘 Lower Shing Mun Reservoir",
        "page_link": "https://follo3me.com/cnt/lower-shing-mun/",
        "pic_link": "https://i0.wp.com/follo3me.com/wp-content/uploads/2020/02/lowershingmun.jpg?resize=1180%2C435&ssl=1"
    },
    {
        "name": "黑山頂 Hak Shan Teng",
        "page_link": "https://follo3me.com/islands/hak-shan-teng/",
        "pic_link": "https://i0.wp.com/follo3me.com/wp-content/uploads/2020/01/hakshanteng.jpg?resize=1180%2C435&ssl=1"
    },
    {
        "name": "大癩痢 Trio Island",
        "page_link": "https://follo3me.com/islands/trio-island/",
        "pic_link": "https://i1.wp.com/follo3me.com/wp-content/uploads/2020/01/Trio-Island.jpg?resize=1180%2C435&ssl=1"
    },
    {
        "name": "牛尾洲 Shelter Island",
        "page_link": "https://follo3me.com/islands/shelter-island/",
        "pic_link": "https://i2.wp.com/follo3me.com/wp-content/uploads/2020/01/Shelter-Island.jpg?resize=1180%2C435&ssl=1"
    },
    {
        "name": "孝子角 Hau Tsz Kok",
        "page_link": "https://follo3me.com/islands/hau-tsz-kok/",
        "pic_link": "https://i0.wp.com/follo3me.com/wp-content/uploads/2020/01/hautszkok.jpg?resize=1180%2C435&ssl=1"
    },
    {
        "name": "吊鐘洲 Jin Island",
        "page_link": "https://follo3me.com/islands/tiu-chung-chau/",
        "pic_link": "https://i1.wp.com/follo3me.com/wp-content/uploads/2020/01/jinisland.jpg?resize=1180%2C435&ssl=1"
    },
    {
        "name": "沙塘口山 (合掌崖) Bluff Island",
        "page_link": "https://follo3me.com/islands/bluff-island/",
        "pic_link": "https://i1.wp.com/follo3me.com/wp-content/uploads/2020/01/Bluff-Island.jpg?resize=1180%2C435&ssl=1"
    },
    {
        "name": "橫瀾島 Waglan Island",
        "page_link": "https://follo3me.com/islands/waglan-island/",
        "pic_link": "https://i1.wp.com/follo3me.com/wp-content/uploads/2020/01/waglan-island.jpg?resize=1180%2C435&ssl=1"
    },
    {
        "name": "沙洲 Sha Chau",
        "page_link": "https://follo3me.com/islands/sha-chau/",
        "pic_link": "https://i0.wp.com/follo3me.com/wp-content/uploads/2020/01/shachau.jpg?resize=1180%2C435&ssl=1"
    },
    {
        "name": "坪洲 Peng Chau",
        "page_link": "https://follo3me.com/islands/peng-chau/",
        "pic_link": "https://i1.wp.com/follo3me.com/wp-content/uploads/2020/01/pingchau.jpg?resize=1180%2C435&ssl=1"
    },
    {
        "name": "長洲 (北角咀) Cheung Chau (Pak Kok Tsui)",
        "page_link": "https://follo3me.com/islands/pak-kok-tsui/",
        "pic_link": "https://i1.wp.com/follo3me.com/wp-content/uploads/2020/01/pakkoktsui.jpg?resize=1180%2C435&ssl=1"
    },
    {
        "name": "長洲 (小長城) Cheung Chau (Mini Great Wall)",
        "page_link": "https://follo3me.com/islands/mini-great-wall/",
        "pic_link": "https://i1.wp.com/follo3me.com/wp-content/uploads/2020/01/minigreatwall.jpg?resize=1180%2C435&ssl=1"
    },
    {
        "name": "往灣洲 Double Island",
        "page_link": "https://follo3me.com/islands/double-island/",
        "pic_link": "https://i1.wp.com/follo3me.com/wp-content/uploads/2020/01/doubleisland.jpg?resize=1180%2C435&ssl=1"
    },
    {
        "name": "白沙洲 (豬頭洲) Round Island",
        "page_link": "https://follo3me.com/islands/round-island/",
        "pic_link": "https://i1.wp.com/follo3me.com/wp-content/uploads/2020/01/roundisland.jpg?resize=1180%2C435&ssl=1"
    },
    {
        "name": "菱角山 Ling Kok Shan",
        "page_link": "https://follo3me.com/islands/ling-kok-shan/",
        "pic_link": "https://i2.wp.com/follo3me.com/wp-content/uploads/2020/01/lingkokshan.jpg?resize=1180%2C435&ssl=1"
    },
    {
        "name": "橋咀島 (橋頭) Sharp Island (Kiu Tau)",
        "page_link": "https://follo3me.com/islands/sharp-island/",
        "pic_link": "https://i1.wp.com/follo3me.com/wp-content/uploads/2020/01/sharpisland.jpg?resize=1180%2C435&ssl=1"
    },
    {
        "name": "東澳 (石排灣) Tung O (Shek Pai Wan)",
        "page_link": "https://follo3me.com/islands/tung-o/",
        "pic_link": "https://i1.wp.com/follo3me.com/wp-content/uploads/2020/01/tungo.jpg?resize=1180%2C435&ssl=1"
    },
    {
        "name": "赤洲 (赤洲頂) Port Island (Chek Chau Teng)",
        "page_link": "https://follo3me.com/islands/chek-chau-teng/",
        "pic_link": "https://i1.wp.com/follo3me.com/wp-content/uploads/2020/01/portisland.jpg?resize=1180%2C435&ssl=1"
    },
    {
        "name": "南果洲 South Ninepin Island",
        "page_link": "https://follo3me.com/islands/s-ninepin/",
        "pic_link": "https://i1.wp.com/follo3me.com/wp-content/uploads/2020/01/southninepin.jpg?resize=1180%2C435&ssl=1"
    },
    {
        "name": "火石洲 Basalt Island",
        "page_link": "https://follo3me.com/islands/basalt-island/",
        "pic_link": "https://i0.wp.com/follo3me.com/wp-content/uploads/2020/01/basaltisalnd.jpg?resize=1180%2C435&ssl=1"
    },
    {
        "name": "塔門 Grass Island",
        "page_link": "https://follo3me.com/islands/grass-island/",
        "pic_link": "https://i2.wp.com/follo3me.com/wp-content/uploads/2020/03/grassisland.jpg?resize=1180%2C435&ssl=1"
    },
    {
        "name": "蒲台島 Po Toi Island",
        "page_link": "https://follo3me.com/islands/po-toi-island/",
        "pic_link": "https://i2.wp.com/follo3me.com/wp-content/uploads/2019/12/potoiisland.jpg?resize=1180%2C435&ssl=1"
    },
    {
        "name": "南丫島 (榕樹灣) Lamma Island (Yung Shue Wan)",
        "page_link": "https://follo3me.com/islands/yung-shue-wan/",
        "pic_link": "https://i2.wp.com/follo3me.com/wp-content/uploads/2020/02/lammaisland.jpg?resize=1180%2C435&ssl=1"
    },
    {
        "name": "北果洲 North Ninepin Island",
        "page_link": "https://follo3me.com/islands/ninepin/",
        "pic_link": "https://i1.wp.com/follo3me.com/wp-content/uploads/2020/01/ninepinnorth.jpg?resize=1180%2C435&ssl=1"
    },
    {
        "name": "東平洲 Tung Ping Chau",
        "page_link": "https://follo3me.com/islands/tung-ping-chau/",
        "pic_link": "https://i1.wp.com/follo3me.com/wp-content/uploads/2020/02/tungpinchau.jpg?resize=1180%2C435&ssl=1"
    }
]