{
    "瀑布灣 (華富瀑布) Waterfall Bay": "https://follo3me.com/hk/waterfall-bay/",
    "石澳 Shek O": "https://follo3me.com/hk/shek-o/",
    "嘉頓山 Garden Hill": "https://follo3me.com/kowloon-tko/garden-hill/",
    "綠蛋島 (爛排) Green Egg Island": "https://follo3me.com/sai-kung/green-egg-island/",
    "烏洲 Wu Chau": "https://follo3me.com/sai-kung/wu-chau/",
    "泥涌 Nai Chung": "https://follo3me.com/sai-kung/nai-chung/",
    "曝罟灣 Po Kwu Wan": "https://follo3me.com/sai-kung/po-kwu-wan/",
    "白虎山 Pak Fu Shan": "https://follo3me.com/sai-kung/pak-fu-shan/",
    "白沙灣 Hebe Haven": "https://follo3me.com/sai-kung/hebe-haven/",
    "布袋澳 Po Toi O": "https://follo3me.com/sai-kung/po-toi-o/",
    "大坑墩 Tai Hang Tun": "https://follo3me.com/sai-kung/tai-hang-tum/",
    "水口灣 Shui Hau Wan": "https://follo3me.com/lantau-island/shui-hau-wan/",
    "陰澳灣 Yam O Wan": "https://follo3me.com/lantau-island/yam-o-wan/",
    "石壁水塘 Shek Pik Reservoir": "https://follo3me.com/lantau-island/shek-pik-reservoir/",
    "大澳 Tai O": "https://follo3me.com/lantau-island/tai-o/",
    "昂坪 Ngong Ping": "https://follo3me.com/lantau-island/ngong-ping/",
    "烏蛟騰 Wu Kau Tang": "https://follo3me.com/nent/wu-kau-tang/",
    "古洞水塘 Kwu Tung Reservoir": "https://follo3me.com/nwnt/kwu-tung-reservoir/",
    "乾白石澗 Kon Pak Stream": "https://follo3me.com/nwnt/kon-pak-stream/",
    "尖鼻咀 (龜山) Tsim Bei Tsui (Kwai Shan)": "https://follo3me.com/nwnt/tsim-bei-tsui/",
    "大生圍 Tai Sang Wai": "https://follo3me.com/nwnt/tai-sang-wai/",
    "南生圍 Nam Sang Wai": "https://follo3me.com/nwnt/nam-sang-wai/",
    "馬草壟 Ma Tso Lung": "https://follo3me.com/nwnt/ma-tso-lung/",
    "石崗 (木棉) Shek Kong": "https://follo3me.com/nwnt/shek-kong/",
    "下白泥 Ha Pak Nai": "https://follo3me.com/nwnt/ha-pak-nai/",
    "青衣公園 Tsing Yi Park (落羽松‧水杉‧水松)": "https://follo3me.com/cnt/tsing-yi-park/",
    "大癩痢 Trio Island": "https://follo3me.com/islands/trio-island/",
    "牛尾洲 Shelter Island": "https://follo3me.com/islands/shelter-island/",
    "橫瀾島 Waglan Island": "https://follo3me.com/islands/waglan-island/",
    "白沙洲 (豬頭洲) Round Island": "https://follo3me.com/islands/round-island/",
    "橋咀島 (橋頭) Sharp Island (Kiu Tau)": "https://follo3me.com/islands/sharp-island/"
  }