[
    "野豬徑 Boa Vista",
    "玉桂山 (佛爺山) Yuk Kwai Shan",
    "鶴咀山 D’ Aguilar Peak",
    "砵甸乍山 Pottinger Peak",
    "柏鰂石澗 (錦鯉坑) Pak Zak Stream",
    "薄扶林水塘 Pok Fu Lam Reservoir",
    "南風道林地｜班納山 Nam Fung Rd. Woodland｜Bennet’s Hill",
    "黃泥涌水塘 Wong Nai Chung Reservoir",
    "寶雲道健身徑 Bowen Rd. Fitness Trail (姻緣石 Lover’s Rock)",
    "大潭水務文物徑 Tai Tam Waterworks Heritage Trail",
    "康柏郊遊徑 Hong Pak Country Trail",
    "斜炮頂 (犀牛石) Che Pau Teng",
    "紫羅蘭山 Violet Hill",
    "畢拿山 Mount Butler",
    "小馬山 Siu Ma Shan",
    "鴨脷排 Ap Lei Pai",
    "玉桂山 Mount Johnston",
    "龍虎山 Lung Fu Shan",
    "香港仔水塘 Aberdeen Reservoirs",
    "西高山 High West",
    "黑角頭 Cape Collinson",
    "潭崗瀑布 Tai Tam Mound Waterfall",
    "鶴咀半島 Cape D’Aguilar Peninsula",
    "龍脊 Dragon’s Back",
    "大浪灣 Big Wave Bay",
    "柏架山紅屋 Mount Parker Woodside",
    "五桂山 Black Hill",
    "十二笏 Shap Yi Wat",
    "照鏡環山 Chiu Keng Wan Shan",
    "大老山 Tate’s Cairn",
    "獅子山 (石馬脊) Lion Rock (Rock Horse Ridge)",
    "筆架沖溝 Beacon Hill Gully",
    "飛鵝山 Kowloon Peak",
    "筆架山 Beacon Hill",
    "雞胸山 Unicorn Ridge",
    "鴨仔山 Duckling Hill",
    "飛鵝山 (芒草) Kowloon Peak",
    "獅子山 Lion Rock",
    "茅湖山廢堡 Mau Wu Lookout",
    "短咀 Tuen Tsui",
    "太墩｜雷打石 Tai Tun｜Lui Ta Shek",
    "茅坪古道 Mau Ping Ancient Trail",
    "東龍二輋 Tung Lung Yi Che",
    "大蛇灣 Tai She Wan",
    "長咀 Cheung Tsui",
    "芙蓉別 Fu Yung Pit",
    "標尖角 Biu Tsim Kok",
    "涌沙頂 Chung Sha Teng",
    "石芽山 (北脊) Shek Nga Shan (North Ridge)",
    "浪茄灣｜罾棚角咀 Long Ke Wan｜Tsang Pang Kok Tsui",
    "撿豬灣｜破邊洲 Kim Chu Wan｜Po Pin Chau",
    "罾棚角咀 Tsang Pang Kok Tsui",
    "花山｜萬柱海岸 Fa Shan",
    "大嶺峒 Tai Leng Tung",
    "牛烏水塘 Ngau Wu Reservoir",
    "吊手岩 (北脊) Tiu Shau Ngam (North Ridge)",
    "棺材角 Ocean Point",
    "海下灣 Hoi Ha Wan",
    "鹿赤走廊 Luk Wu-Chek Keng Path (吊鐘花)",
    "黃牛石城 West Buffalo Stone Castle",
    "蚺蛇尖 (北脊) Sharp Peak (North Ridge)",
    "東洋山 (芒草) Tung Yeung Shan",
    "雙鹿石澗 (四疊潭) Sheung Luk’s Four Pools",
    "大灣｜東灣 Tai Wan｜Tung Wan",
    "浪茄灣 Long Ke Wan",
    "小破邊 Siu Po Pin",
    "白水碗 Pak Shui Wun",
    "太墩 Tai Tun",
    "麻南笏｜白馬咀 Ma Nam Wat｜Pak Ma Tsui",
    "馬鞍山 Ma On Shan",
    "起子灣 Hei Tsz Wan",
    "浪茄仔 Long Ke Tsai",
    "大枕蓋 Tai Cham Koi",
    "女婆山 Nui Po Shan",
    "石芽山 Shek Nga Shan",
    "黃牛山 (芒草) West Buffalo Hill",
    "東洋山 Tung Yeung Shan",
    "蛇石坳 She Shek Au",
    "深涌 Sham Chung",
    "黃牛山｜水牛山 West Buffalo Hill｜Buffalo Hill",
    "白腊灣｜木棉洞 Pak Lap Wan｜Mok Min Cave",
    "破邊洲 Po Pin Chau",
    "鹿湖郊遊徑 Luk Wu Country Trail",
    "大浪西灣 Tai Long Sai Wan",
    "鹹田灣 Ham Tin Wan",
    "睇魚岩頂 Tai Yue Ngam Teng",
    "釣魚翁 High Junk Peak",
    "蚺蛇灣 Nam She Wan",
    "龍蝦灣 Lung Ha Wan",
    "蚺蛇尖｜米粉頂 Sharp Peak｜Mai Fan Teng",
    "萬宜水庫東壩 High Island (East Dam)",
    "萬宜水庫西壩 High Island (West Dam)",
    "蚺蛇尖 Sharp Peak",
    "大金鐘 Pyramid Hill",
    "昂平高原 Ngong Ping Plateau",
    "薄刀屻｜婆髻山 Pok To Yan｜Por Kai Shan",
    "彌勒山 Nei Lak Shan",
    "愉景灣水塘 Discovery Bay Reservoir",
    "觀音山｜羗山 Kwun Yam Shan｜Keung Shan",
    "鳳東飛流 East Phoenix Stream",
    "石獅山 Shek Sze Shan",
    "獅山｜象山 Sze Shan｜Cheung Shan",
    "鳳凰山 (芒草) Lantau Peak",
    "長索 Cheung Sok",
    "爛頭營 (天池) Lantau Mountain Camp",
    "沙螺灣 Sha Lo Wan",
    "北龍石澗 (天書壁) Pak Lung Stream",
    "鳳冠南巖 South Phoenix Trail",
    "羅漢塔｜南天門 Law Hon Tap｜South Heaven Gate",
    "北天門 (天門棧道) North Heaven Gate",
    "芝麻灣石林 Chi Ma Wan Boulder Field",
    "分流 Fan Lau",
    "煎魚灣｜雞翼角 Tsin Yue Wan｜Peaked Hill",
    "石壁郊遊徑 Shek Pik Country Trail",
    "西狗牙嶺 Kau Nga Ling (West Ridge)",
    "二東山 Yi Tung Shan",
    "萬丈布 (天池) Man Cheung Po’s Infinity Pool",
    "昂坪棧道 Ngong Ping Trail",
    "東梅古道 Tung Mui Ancient Trail",
    "禾徑山 Wo Keng Shan",
    "烏洲塘 Wu Chau Tong",
    "紅花寨 Hung Fa Chai",
    "龍山 Lung Shan",
    "黃竹角咀 Wong Chuk Kok Tsui",
    "鳳坑 Fung Hang (蘆葦)",
    "吊燈籠｜芬箕托 Tiu Tang Lung｜Fan Kei Tok",
    "蓮麻坑｜紅花嶺 Lin Ma Hang｜Robin’s Nest",
    "鎖羅盤 So Lo Pun",
    "橫七古道 Wang Tsat Ancient Trail",
    "九龍坑山 Cloudy Hill",
    "流水響 Lau Shui Heung (落羽松)",
    "紅石門 Hung Shek Mun",
    "谷埔 Kuk Po (蘆葦)",
    "長牌墩 Cheung Pai Tun",
    "石板潭 (嘉龍潭) Ka Lung Pool",
    "鶴藪水塘 Hok Tau Reservoir",
    "流水響 Lau Shui Heung",
    "荔枝窩 Lai Chi Wo",
    "八仙嶺 Pat Sin Leng",
    "三椏灣 Sam A Wan",
    "吊燈籠 Tiu Tang Lung",
    "新娘潭 Bride’s Pool",
    "麒麟山 Ki Lun Shan",
    "洪水坑水塘 Hung Shui Hang Reservoir",
    "牛潭山 Ngau Tam Shan",
    "黃泥墩水塘 Wong Nai Tun Irrigation Reservoir",
    "牛牯嶺｜大刀屻 Ngau Kwu Leng｜Tai To Yan",
    "屏山文物徑 Ping Shan Heritage Trail",
    "千島湖清景台 Reservoir Islands Viewpoint",
    "石龍坑 Shek Lung Stream",
    "乾山｜圓頭山 Kon Shan｜Yuen Tau Shan",
    "桃坑峒 To Hang Tung",
    "花香爐頂 Fa Heung Lo Teng",
    "甲龍古道 Kap Lung Ancient Trail",
    "青山 Castle Peak",
    "千島‧九逕 Thousand and Nine Trail",
    "大欖涌千島湖 Thousand Islands",
    "九逕山 Kau Keng Shan",
    "藍地水塘 Lam Tei Reservoir",
    "石龍拱 Shek Lung Kung",
    "蛇嶺 She Leng",
    "髻山 Kai Shan",
    "大石磨 Crest Hill a.k.a. Tai Shek Mo",
    "良田坳峽谷 (菠蘿山) Leung Tin Au Valley",
    "大刀屻 Tai To Yan",
    "大棠楓香林 Tai Tong Sweet Gum Woods",
    "走馬崗｜燕岩頂 Chau Ma Kong｜Yin Ngam Teng",
    "社山 She Shan",
    "排頭坑 Pai Tau Hang (吊鐘王)",
    "孖指徑 (城門戰地遺跡徑) Smuggler’s Ridge (Shing Mun War Relics Trail)",
    "道風山 To Fung Shan",
    "龍門郊遊徑 Lung Mun Country Trail",
    "草山 Grassy Hill",
    "妙高台 Miu Ko Toi",
    "禾秧山 Woo Yeung Shan",
    "相思林徑 Sheung Sze Forest Trail",
    "大帽山 Tai Mo Shan",
    "四方山 Sze Fong Shan",
    "燕岩 Yin Ngam",
    "針山 Needle Hill",
    "石梨貝水塘 Shek Lei Pui Reservoir",
    "九龍水塘 Kowloon Reservoir",
    "青衣回歸紀念徑 Tsing Yi Nature Trail",
    "城門水塘 Shing Mun Reservoir",
    "下城門水塘 Lower Shing Mun Reservoir",
    "孝子角 Hau Tsz Kok",
    "吊鐘洲 Jin Island",
    "沙塘口山 (合掌崖) Bluff Island",
    "坪洲 Peng Chau",
    "長洲 (小長城) Cheung Chau (Mini Great Wall)",
    "往灣洲 Double Island",
    "菱角山 Ling Kok Shan",
    "東澳 (石排灣) Tung O (Shek Pai Wan)",
    "赤洲 (赤洲頂) Port Island (Chek Chau Teng)",
    "南果洲 South Ninepin Island",
    "火石洲 Basalt Island",
    "塔門 Grass Island",
    "蒲台島 Po Toi Island",
    "南丫島 (榕樹灣) Lamma Island (Yung Shue Wan)",
    "北果洲 North Ninepin Island",
    "東平洲 Tung Ping Chau"
]